sim/rx_errors_int.log
# vsim -sv_seed random uart_tb "+UVM_TESTNAME=rx_errors_int_test" -do "coverage save rx_errors_int.ucdb -onexit;run -all" -l rx_errors_int.log -voptargs="+acc" 
# Start time: 15:55:27 on Aug 23,2023
# ** Note: (vsim-3813) Design is being optimized due to module recompilation...
# //  Questa Sim-64
# //  Version 10.6c win64 Jul 26 2017
# //
# //  Copyright 1991-2017 Mentor Graphics Corporation
# //  All Rights Reserved.
# //
# //  QuestaSim and its associated documentation contain trade
# //  secrets and commercial or financial information that are the property of
# //  Mentor Graphics Corporation and are privileged, confidential,
# //  and exempt from disclosure under the Freedom of Information Act,
# //  5 U.S.C. Section 552. Furthermore, this information
# //  is prohibited from disclosure under the Trade Secrets Act,
# //  18 U.S.C. Section 1905.
# //
# Loading sv_std.std
# Loading work.apb_if(fast)
# Loading work.modem_if(fast)
# Loading mtiUvm.uvm_pkg
# Loading work.uart_agent_pkg(fast)
# Loading work.uart_seq_pkg(fast)
# Loading work.uart_reg_pkg(fast)
# Loading work.modem_agent_pkg(fast)
# Loading work.apb_agent_pkg(fast)
# Loading work.uart_env_pkg(fast)
# Loading work.host_if_seq_pkg(fast)
# Loading work.uart_vseq_pkg(fast)
# Loading work.uart_test_pkg(fast)
# Loading work.serial_if(fast)
# Loading work.interrupt_if(fast)
# Loading work.uart_tb(fast)
# Loading work.apb_if(fast)
# Loading work.serial_if(fast)
# Loading work.modem_if(fast)
# Loading work.interrupt_if(fast)
# Loading work.uart_16550(fast)
# Loading work.uart_register_file(fast)
# Loading work.uart_tx(fast)
# Loading work.uart_tx_fifo(fast)
# Loading work.uart_rx(fast)
# Loading work.uart_rx_fifo(fast)
# Loading work.apb_monitor(fast)
# Loading mtiUvm.questa_uvm_pkg(fast)
# Loading D:/icTools/qsim10.6setupFiles/uvm-1.1d\win64\uvm_dpi.dll
# Sv_Seed = 3916910582
# coverage save rx_errors_int.ucdb -onexit
# run -all
# ----------------------------------------------------------------
# UVM-1.1d
# (C) 2007-2013 Mentor Graphics Corporation
# (C) 2007-2013 Cadence Design Systems, Inc.
# (C) 2006-2013 Synopsys, Inc.
# (C) 2011-2013 Cypress Semiconductor Corp.
# ----------------------------------------------------------------
# 
#   ***********       IMPORTANT RELEASE NOTES         ************
# 
#   You are using a version of the UVM library that has been compiled
#   with `UVM_NO_DEPRECATED undefined.
#   See http://www.eda.org/svdb/view.php?id=3313 for more details.
# 
#   You are using a version of the UVM library that has been compiled
#   with `UVM_OBJECT_MUST_HAVE_CONSTRUCTOR undefined.
#   See http://www.eda.org/svdb/view.php?id=3770 for more details.
# 
#       (Specify +UVM_NO_RELNOTES to turn off this notice)
# 
# UVM_INFO verilog_src/questa_uvm_pkg-1.2/src/questa_uvm_pkg.sv(215) @ 0: reporter [Questa UVM] QUESTA_UVM-1.2.3
# UVM_INFO verilog_src/questa_uvm_pkg-1.2/src/questa_uvm_pkg.sv(217) @ 0: reporter [Questa UVM]  questa_uvm::init(+struct)
# UVM_INFO @ 0: reporter [RNTST] Running test rx_errors_int_test...
# no_rx_chars:20 rx_fifo_threshold:14 no_tx_chars:3
# no_rx_chars:6 rx_fifo_threshold:14 no_tx_chars:3
# no_rx_chars:6 rx_fifo_threshold:14 no_tx_chars:0
# no_rx_chars:10 rx_fifo_threshold:8 no_tx_chars:0
# no_rx_chars:2 rx_fifo_threshold:8 no_tx_chars:0
# no_rx_chars:11 rx_fifo_threshold:4 no_tx_chars:0
# no_rx_chars:11 rx_fifo_threshold:4 no_tx_chars:0
# no_rx_chars:11 rx_fifo_threshold:4 no_tx_chars:0
# no_rx_chars:7 rx_fifo_threshold:4 no_tx_chars:0
# no_rx_chars:3 rx_fifo_threshold:4 no_tx_chars:0
# no_rx_chars:4 rx_fifo_threshold:4 no_tx_chars:0
# no_rx_chars:14 rx_fifo_threshold:8 no_tx_chars:2
# UVM_WARNING ../agents/uart_agent/uart_monitor.svh(95) @ 149460: uvm_test_top.m_env.m_rx_uart_agent.m_uart_monitor [startBitErrorDetect] False start bit detected
# UVM_INFO ../uvm_tb/env/uart_rx_scoreboard.svh(93) @ 165165: uvm_test_top.m_env.rx_sb [monitor_uart] RX Data error detected: PE:0 FE:1 LCR:4
# UVM_ERROR ../uvm_tb/env/uart_rx_scoreboard.svh(100) @ 165165: uvm_test_top.m_env.rx_sb [monitor_uart] Error in observed UART RX data expected:2 actual:1 LCR:4
# no_rx_chars:6 rx_fifo_threshold:8 no_tx_chars:2
# no_rx_chars:6 rx_fifo_threshold:8 no_tx_chars:0
# no_rx_chars:5 rx_fifo_threshold:1 no_tx_chars:0
# no_rx_chars:4 rx_fifo_threshold:1 no_tx_chars:0
# no_rx_chars:4 rx_fifo_threshold:1 no_tx_chars:0
# no_rx_chars:3 rx_fifo_threshold:1 no_tx_chars:0
# no_rx_chars:3 rx_fifo_threshold:1 no_tx_chars:0
# no_rx_chars:2 rx_fifo_threshold:1 no_tx_chars:0
# no_rx_chars:2 rx_fifo_threshold:1 no_tx_chars:0
# no_rx_chars:1 rx_fifo_threshold:1 no_tx_chars:0
# no_rx_chars:5 rx_fifo_threshold:1 no_tx_chars:4
# no_rx_chars:4 rx_fifo_threshold:1 no_tx_chars:4
# no_rx_chars:4 rx_fifo_threshold:1 no_tx_chars:4
# no_rx_chars:3 rx_fifo_threshold:1 no_tx_chars:4
# no_rx_chars:3 rx_fifo_threshold:1 no_tx_chars:4
# no_rx_chars:2 rx_fifo_threshold:1 no_tx_chars:4
# no_rx_chars:2 rx_fifo_threshold:1 no_tx_chars:4
# no_rx_chars:1 rx_fifo_threshold:1 no_tx_chars:4
# no_rx_chars:1 rx_fifo_threshold:1 no_tx_chars:4
# no_rx_chars:0 rx_fifo_threshold:1 no_tx_chars:4
# no_rx_chars:0 rx_fifo_threshold:1 no_tx_chars:4
# no_rx_chars:0 rx_fifo_threshold:1 no_tx_chars:0
# no_rx_chars:8 rx_fifo_threshold:4 no_tx_chars:2
# no_rx_chars:4 rx_fifo_threshold:4 no_tx_chars:2
# no_rx_chars:0 rx_fifo_threshold:4 no_tx_chars:2
# no_rx_chars:0 rx_fifo_threshold:4 no_tx_chars:0
# no_rx_chars:8 rx_fifo_threshold:4 no_tx_chars:0
# no_rx_chars:8 rx_fifo_threshold:4 no_tx_chars:0
# no_rx_chars:8 rx_fifo_threshold:4 no_tx_chars:0
# no_rx_chars:4 rx_fifo_threshold:4 no_tx_chars:0
# no_rx_chars:7 rx_fifo_threshold:4 no_tx_chars:0
# no_rx_chars:3 rx_fifo_threshold:4 no_tx_chars:0
# no_rx_chars:6 rx_fifo_threshold:4 no_tx_chars:0
# UVM_INFO ../uvm_tb/env/uart_rx_scoreboard.svh(93) @ 459255: uvm_test_top.m_env.rx_sb [monitor_uart] RX Data error detected: PE:0 FE:1 LCR:a
# no_rx_chars:2 rx_fifo_threshold:4 no_tx_chars:0
# ** Error: (vsim-8567) Illegal cross bin was hit. The bin counter for the bin 'lsr_read_cg.FIFO_ERROR_STATUS.missing_fifo_error' is 1.
#    Time: 459305 ns  Iteration: 1  Region: /uvm_pkg::uvm_task_phase::execute
# UVM_INFO ../uvm_tb/env/uart_rx_scoreboard.svh(93) @ 462295: uvm_test_top.m_env.rx_sb [monitor_uart] RX Data error detected: PE:1 FE:1 LCR:a
# ** Error: (vsim-8567) Illegal cross bin was hit. The bin counter for the bin 'lsr_read_cg.FIFO_ERROR_STATUS.missing_fifo_error' is 2.
#    Time: 462345 ns  Iteration: 1  Region: /uvm_pkg::uvm_task_phase::execute
# UVM_INFO ../uvm_tb/env/uart_rx_scoreboard.svh(93) @ 465335: uvm_test_top.m_env.rx_sb [monitor_uart] RX Data error detected: PE:0 FE:1 LCR:a
# ** Error: (vsim-8567) Illegal cross bin was hit. The bin counter for the bin 'lsr_read_cg.FIFO_ERROR_STATUS.missing_fifo_error' is 3.
#    Time: 466265 ns  Iteration: 1  Region: /uvm_pkg::uvm_task_phase::execute
# no_rx_chars:15 rx_fifo_threshold:8 no_tx_chars:1
# UVM_INFO ../uvm_tb/env/uart_rx_scoreboard.svh(93) @ 517295: uvm_test_top.m_env.rx_sb [monitor_uart] RX Data error detected: PE:1 FE:0 LCR:b
# no_rx_chars:7 rx_fifo_threshold:8 no_tx_chars:1
# no_rx_chars:0 rx_fifo_threshold:8 no_tx_chars:1
# no_rx_chars:0 rx_fifo_threshold:8 no_tx_chars:0
# no_rx_chars:6 rx_fifo_threshold:1 no_tx_chars:8
# no_rx_chars:6 rx_fifo_threshold:1 no_tx_chars:0
# no_rx_chars:5 rx_fifo_threshold:1 no_tx_chars:0
# no_rx_chars:5 rx_fifo_threshold:1 no_tx_chars:0
# no_rx_chars:4 rx_fifo_threshold:1 no_tx_chars:0
# no_rx_chars:4 rx_fifo_threshold:1 no_tx_chars:0
# no_rx_chars:3 rx_fifo_threshold:1 no_tx_chars:0
# no_rx_chars:3 rx_fifo_threshold:1 no_tx_chars:0
# no_rx_chars:2 rx_fifo_threshold:1 no_tx_chars:0
# no_rx_chars:2 rx_fifo_threshold:1 no_tx_chars:0
# no_rx_chars:1 rx_fifo_threshold:1 no_tx_chars:0
# no_rx_chars:14 rx_fifo_threshold:8 no_tx_chars:1
# no_rx_chars:6 rx_fifo_threshold:8 no_tx_chars:1
# no_rx_chars:6 rx_fifo_threshold:8 no_tx_chars:0
# no_rx_chars:9 rx_fifo_threshold:8 no_tx_chars:0
# no_rx_chars:1 rx_fifo_threshold:8 no_tx_chars:0
# no_rx_chars:6 rx_fifo_threshold:1 no_tx_chars:18
# no_rx_chars:6 rx_fifo_threshold:1 no_tx_chars:2
# no_rx_chars:5 rx_fifo_threshold:1 no_tx_chars:2
# no_rx_chars:5 rx_fifo_threshold:1 no_tx_chars:2
# no_rx_chars:4 rx_fifo_threshold:1 no_tx_chars:2
# no_rx_chars:4 rx_fifo_threshold:1 no_tx_chars:2
# no_rx_chars:3 rx_fifo_threshold:1 no_tx_chars:2
# no_rx_chars:3 rx_fifo_threshold:1 no_tx_chars:2
# no_rx_chars:2 rx_fifo_threshold:1 no_tx_chars:2
# no_rx_chars:2 rx_fifo_threshold:1 no_tx_chars:2
# no_rx_chars:1 rx_fifo_threshold:1 no_tx_chars:2
# no_rx_chars:1 rx_fifo_threshold:1 no_tx_chars:2
# UVM_INFO ../uvm_tb/env/uart_rx_scoreboard.svh(93) @ 710685: uvm_test_top.m_env.rx_sb [monitor_uart] RX Data error detected: PE:0 FE:1 LCR:f
# no_rx_chars:0 rx_fifo_threshold:1 no_tx_chars:2
# ** Error (suppressible): (vsim-12030) Covergroup Builtin function call 'sample' is ignored as the covergroup object of type '/uart_env_pkg::uart_interrupt_coverage_monitor::#rx_status_word_format_int_cg#' is not constructed.
#    Time: 710735 ns  Iteration: 2  Region: /uart_env_pkg::uart_interrupt_coverage_monitor::run_phase
# ** Error: (vsim-8567) Illegal cross bin was hit. The bin counter for the bin 'lsr_read_cg.FIFO_ERROR_STATUS.missing_fifo_error' is 4.
#    Time: 710785 ns  Iteration: 1  Region: /uvm_pkg::uvm_task_phase::execute
# no_rx_chars:0 rx_fifo_threshold:1 no_tx_chars:2
# no_rx_chars:0 rx_fifo_threshold:1 no_tx_chars:2
# UVM_INFO ../uvm_tb/env/uart_rx_scoreboard.svh(93) @ 714045: uvm_test_top.m_env.rx_sb [monitor_uart] RX Data error detected: PE:0 FE:1 LCR:f
# no_rx_chars:-1 rx_fifo_threshold:1 no_tx_chars:2
# UVM_WARNING ../agents/uart_agent/uart_monitor.svh(95) @ 714050: uvm_test_top.m_env.m_rx_uart_agent.m_uart_monitor [startBitErrorDetect] False start bit detected
# ** Error (suppressible): (vsim-12030) Covergroup Builtin function call 'sample' is ignored as the covergroup object of type '/uart_env_pkg::uart_interrupt_coverage_monitor::#rx_status_word_format_int_cg#' is not constructed.
#    Time: 714105 ns  Iteration: 2  Region: /uart_env_pkg::uart_interrupt_coverage_monitor::run_phase
# no_rx_chars:-1 rx_fifo_threshold:1 no_tx_chars:2
# no_rx_chars:-1 rx_fifo_threshold:1 no_tx_chars:2
# no_rx_chars:-1 rx_fifo_threshold:1 no_tx_chars:0
# no_rx_chars:4 rx_fifo_threshold:4 no_tx_chars:0
# no_rx_chars:4 rx_fifo_threshold:1 no_tx_chars:3
# no_rx_chars:3 rx_fifo_threshold:1 no_tx_chars:3
# no_rx_chars:3 rx_fifo_threshold:1 no_tx_chars:3
# no_rx_chars:2 rx_fifo_threshold:1 no_tx_chars:3
# no_rx_chars:2 rx_fifo_threshold:1 no_tx_chars:3
# no_rx_chars:1 rx_fifo_threshold:1 no_tx_chars:3
# no_rx_chars:1 rx_fifo_threshold:1 no_tx_chars:3
# no_rx_chars:0 rx_fifo_threshold:1 no_tx_chars:3
# no_rx_chars:0 rx_fifo_threshold:1 no_tx_chars:3
# no_rx_chars:0 rx_fifo_threshold:1 no_tx_chars:0
# no_rx_chars:14 rx_fifo_threshold:8 no_tx_chars:0
# no_rx_chars:14 rx_fifo_threshold:8 no_tx_chars:0
# no_rx_chars:14 rx_fifo_threshold:8 no_tx_chars:0
# no_rx_chars:6 rx_fifo_threshold:8 no_tx_chars:0
# no_rx_chars:16 rx_fifo_threshold:8 no_tx_chars:0
# no_rx_chars:16 rx_fifo_threshold:8 no_tx_chars:0
# no_rx_chars:16 rx_fifo_threshold:8 no_tx_chars:0
# no_rx_chars:8 rx_fifo_threshold:8 no_tx_chars:0
# no_rx_chars:10 rx_fifo_threshold:8 no_tx_chars:2
# no_rx_chars:2 rx_fifo_threshold:8 no_tx_chars:2
# no_rx_chars:2 rx_fifo_threshold:8 no_tx_chars:0
# no_rx_chars:5 rx_fifo_threshold:4 no_tx_chars:0
# no_rx_chars:5 rx_fifo_threshold:4 no_tx_chars:0
# no_rx_chars:5 rx_fifo_threshold:4 no_tx_chars:0
# no_rx_chars:1 rx_fifo_threshold:4 no_tx_chars:0
# no_rx_chars:5 rx_fifo_threshold:1 no_tx_chars:0
# no_rx_chars:4 rx_fifo_threshold:1 no_tx_chars:0
# no_rx_chars:4 rx_fifo_threshold:1 no_tx_chars:0
# no_rx_chars:3 rx_fifo_threshold:1 no_tx_chars:0
# no_rx_chars:3 rx_fifo_threshold:1 no_tx_chars:0
# no_rx_chars:2 rx_fifo_threshold:1 no_tx_chars:0
# no_rx_chars:2 rx_fifo_threshold:1 no_tx_chars:0
# no_rx_chars:1 rx_fifo_threshold:1 no_tx_chars:0
# no_rx_chars:14 rx_fifo_threshold:14 no_tx_chars:2
# no_rx_chars:0 rx_fifo_threshold:14 no_tx_chars:2
# no_rx_chars:0 rx_fifo_threshold:14 no_tx_chars:0
# no_rx_chars:4 rx_fifo_threshold:1 no_tx_chars:0
# no_rx_chars:3 rx_fifo_threshold:1 no_tx_chars:0
# no_rx_chars:3 rx_fifo_threshold:1 no_tx_chars:0
# no_rx_chars:2 rx_fifo_threshold:1 no_tx_chars:0
# no_rx_chars:2 rx_fifo_threshold:1 no_tx_chars:0
# no_rx_chars:1 rx_fifo_threshold:1 no_tx_chars:0
# no_rx_chars:11 rx_fifo_threshold:4 no_tx_chars:0
# no_rx_chars:7 rx_fifo_threshold:4 no_tx_chars:0
# no_rx_chars:7 rx_fifo_threshold:4 no_tx_chars:0
# no_rx_chars:7 rx_fifo_threshold:4 no_tx_chars:0
# no_rx_chars:3 rx_fifo_threshold:4 no_tx_chars:0
# no_rx_chars:14 rx_fifo_threshold:14 no_tx_chars:0
# UVM_INFO ../uvm_tb/env/uart_rx_scoreboard.svh(93) @ 1187755: uvm_test_top.m_env.rx_sb [monitor_uart] RX Data error detected: PE:0 FE:1 LCR:1a
# ** Error: (vsim-8567) Illegal cross bin was hit. The bin counter for the bin 'lsr_read_cg.FIFO_ERROR_STATUS.missing_fifo_error' is 6.
#    Time: 1187805 ns  Iteration: 1  Region: /uvm_pkg::uvm_task_phase::execute
# UVM_INFO ../uvm_tb/env/uart_rx_scoreboard.svh(93) @ 1194115: uvm_test_top.m_env.rx_sb [monitor_uart] RX Data error detected: PE:0 FE:1 LCR:1a
# ** Error: (vsim-8567) Illegal cross bin was hit. The bin counter for the bin 'lsr_read_cg.FIFO_ERROR_STATUS.missing_fifo_error' is 7.
#    Time: 1194165 ns  Iteration: 1  Region: /uvm_pkg::uvm_task_phase::execute
# no_rx_chars:22 rx_fifo_threshold:14 no_tx_chars:2
# UVM_INFO ../uvm_tb/env/uart_rx_scoreboard.svh(93) @ 1251055: uvm_test_top.m_env.rx_sb [monitor_uart] RX Data error detected: PE:0 FE:1 LCR:1b
# UVM_INFO ../uvm_tb/env/uart_rx_scoreboard.svh(93) @ 1251105: uvm_test_top.m_env.rx_sb [monitor_uart] RX Data error detected: PE:0 FE:1 LCR:1b
# UVM_INFO ../uvm_tb/env/uart_rx_scoreboard.svh(93) @ 1251155: uvm_test_top.m_env.rx_sb [monitor_uart] RX Data error detected: PE:1 FE:1 LCR:1b
# UVM_INFO ../uvm_tb/env/uart_rx_scoreboard.svh(93) @ 1251205: uvm_test_top.m_env.rx_sb [monitor_uart] RX Data error detected: PE:1 FE:1 LCR:1b
# UVM_INFO ../uvm_tb/env/uart_rx_scoreboard.svh(93) @ 1251305: uvm_test_top.m_env.rx_sb [monitor_uart] RX Data error detected: PE:1 FE:1 LCR:1b
# UVM_INFO ../uvm_tb/env/uart_rx_scoreboard.svh(93) @ 1251605: uvm_test_top.m_env.rx_sb [monitor_uart] RX Data error detected: PE:1 FE:0 LCR:1b
# no_rx_chars:8 rx_fifo_threshold:14 no_tx_chars:2
# no_rx_chars:8 rx_fifo_threshold:14 no_tx_chars:2
# no_rx_chars:8 rx_fifo_threshold:14 no_tx_chars:0
# no_rx_chars:17 rx_fifo_threshold:14 no_tx_chars:4
# UVM_INFO ../uvm_tb/env/uart_rx_scoreboard.svh(93) @ 1323435: uvm_test_top.m_env.rx_sb [monitor_uart] RX Data error detected: PE:1 FE:0 LCR:1c
# UVM_ERROR ../uvm_tb/env/uart_rx_scoreboard.svh(100) @ 1323435: uvm_test_top.m_env.rx_sb [monitor_uart] Error in observed UART RX data expected:c actual:16 LCR:1c
# no_rx_chars:3 rx_fifo_threshold:14 no_tx_chars:4
# no_rx_chars:3 rx_fifo_threshold:14 no_tx_chars:0
# no_rx_chars:4 rx_fifo_threshold:4 no_tx_chars:4
# no_rx_chars:0 rx_fifo_threshold:4 no_tx_chars:4
# no_rx_chars:0 rx_fifo_threshold:4 no_tx_chars:0
# no_rx_chars:21 rx_fifo_threshold:14 no_tx_chars:3
# no_rx_chars:7 rx_fifo_threshold:14 no_tx_chars:3
# no_rx_chars:7 rx_fifo_threshold:14 no_tx_chars:0
# UVM_INFO ../uvm_tb/env/uart_rx_scoreboard.svh(93) @ 1474545: uvm_test_top.m_env.rx_sb [monitor_uart] RX Data error detected: PE:0 FE:1 LCR:1e
# ** Error: (vsim-8567) Illegal cross bin was hit. The bin counter for the bin 'lsr_read_cg.FIFO_ERROR_STATUS.missing_fifo_error' is 8.
#    Time: 1474595 ns  Iteration: 1  Region: /uvm_pkg::uvm_task_phase::execute
# UVM_WARNING ../agents/uart_agent/uart_monitor.svh(95) @ 1477360: uvm_test_top.m_env.m_rx_uart_agent.m_uart_monitor [startBitErrorDetect] False start bit detected
# UVM_INFO ../uvm_tb/env/uart_rx_scoreboard.svh(93) @ 1477585: uvm_test_top.m_env.rx_sb [monitor_uart] RX Data error detected: PE:0 FE:1 LCR:1e
# UVM_ERROR ../uvm_tb/env/uart_rx_scoreboard.svh(112) @ 1477585: uvm_test_top.m_env.rx_sb [monitor_uart] Error in observed UART RX data expected:b actual:45 LCR:1e
# ** Error: (vsim-8567) Illegal cross bin was hit. The bin counter for the bin 'lsr_read_cg.FIFO_ERROR_STATUS.missing_fifo_error' is 9.
#    Time: 1477635 ns  Iteration: 1  Region: /uvm_pkg::uvm_task_phase::execute
# UVM_ERROR ../uvm_tb/env/uart_rx_scoreboard.svh(129) @ 1477635: uvm_test_top.m_env.rx_sb [monitor_uart] Error in LSR PE bit - expected:0 actual:1
# UVM_ERROR ../uvm_tb/env/uart_rx_scoreboard.svh(133) @ 1477635: uvm_test_top.m_env.rx_sb [monitor_uart] Error in LSR FE bit - expected:0 actual:0
# no_rx_chars:6 rx_fifo_threshold:1 no_tx_chars:0
# no_rx_chars:5 rx_fifo_threshold:1 no_tx_chars:0
# no_rx_chars:5 rx_fifo_threshold:1 no_tx_chars:0
# no_rx_chars:4 rx_fifo_threshold:1 no_tx_chars:0
# no_rx_chars:4 rx_fifo_threshold:1 no_tx_chars:0
# no_rx_chars:3 rx_fifo_threshold:1 no_tx_chars:0
# no_rx_chars:3 rx_fifo_threshold:1 no_tx_chars:0
# no_rx_chars:2 rx_fifo_threshold:1 no_tx_chars:0
# no_rx_chars:2 rx_fifo_threshold:1 no_tx_chars:0
# no_rx_chars:1 rx_fifo_threshold:1 no_tx_chars:0
# no_rx_chars:3 rx_fifo_threshold:1 no_tx_chars:4
# no_rx_chars:2 rx_fifo_threshold:1 no_tx_chars:4
# no_rx_chars:2 rx_fifo_threshold:1 no_tx_chars:4
# no_rx_chars:1 rx_fifo_threshold:1 no_tx_chars:4
# no_rx_chars:1 rx_fifo_threshold:1 no_tx_chars:4
# UVM_INFO ../uvm_tb/env/uart_rx_scoreboard.svh(93) @ 1540245: uvm_test_top.m_env.rx_sb [monitor_uart] RX Data error detected: PE:0 FE:1 LCR:20
# no_rx_chars:0 rx_fifo_threshold:1 no_tx_chars:4
# no_rx_chars:0 rx_fifo_threshold:1 no_tx_chars:4
# no_rx_chars:0 rx_fifo_threshold:1 no_tx_chars:0
# UVM_ERROR ../uvm_tb/env/uart_rx_scoreboard.svh(133) @ 1569595: uvm_test_top.m_env.rx_sb [monitor_uart] Error in LSR FE bit - expected:0 actual:0
# no_rx_chars:6 rx_fifo_threshold:1 no_tx_chars:0
# no_rx_chars:5 rx_fifo_threshold:1 no_tx_chars:0
# no_rx_chars:5 rx_fifo_threshold:1 no_tx_chars:0
# no_rx_chars:4 rx_fifo_threshold:1 no_tx_chars:0
# no_rx_chars:4 rx_fifo_threshold:1 no_tx_chars:0
# no_rx_chars:3 rx_fifo_threshold:1 no_tx_chars:0
# no_rx_chars:3 rx_fifo_threshold:1 no_tx_chars:0
# no_rx_chars:2 rx_fifo_threshold:1 no_tx_chars:0
# no_rx_chars:2 rx_fifo_threshold:1 no_tx_chars:0
# no_rx_chars:1 rx_fifo_threshold:1 no_tx_chars:0
# no_rx_chars:9 rx_fifo_threshold:4 no_tx_chars:0
# no_rx_chars:9 rx_fifo_threshold:4 no_tx_chars:0
# no_rx_chars:9 rx_fifo_threshold:4 no_tx_chars:0
# no_rx_chars:5 rx_fifo_threshold:4 no_tx_chars:0
# no_rx_chars:1 rx_fifo_threshold:4 no_tx_chars:0
# no_rx_chars:8 rx_fifo_threshold:4 no_tx_chars:0
# no_rx_chars:8 rx_fifo_threshold:4 no_tx_chars:0
# no_rx_chars:8 rx_fifo_threshold:4 no_tx_chars:0
# no_rx_chars:4 rx_fifo_threshold:4 no_tx_chars:0
# no_rx_chars:7 rx_fifo_threshold:1 no_tx_chars:0
# no_rx_chars:6 rx_fifo_threshold:1 no_tx_chars:0
# no_rx_chars:6 rx_fifo_threshold:1 no_tx_chars:0
# no_rx_chars:5 rx_fifo_threshold:1 no_tx_chars:0
# no_rx_chars:5 rx_fifo_threshold:1 no_tx_chars:0
# no_rx_chars:4 rx_fifo_threshold:1 no_tx_chars:0
# no_rx_chars:4 rx_fifo_threshold:1 no_tx_chars:0
# no_rx_chars:3 rx_fifo_threshold:1 no_tx_chars:0
# no_rx_chars:3 rx_fifo_threshold:1 no_tx_chars:0
# no_rx_chars:3 rx_fifo_threshold:1 no_tx_chars:0
# no_rx_chars:3 rx_fifo_threshold:1 no_tx_chars:0
# no_rx_chars:2 rx_fifo_threshold:1 no_tx_chars:0
# no_rx_chars:2 rx_fifo_threshold:1 no_tx_chars:0
# no_rx_chars:1 rx_fifo_threshold:1 no_tx_chars:0
# no_rx_chars:6 rx_fifo_threshold:4 no_tx_chars:0
# no_rx_chars:2 rx_fifo_threshold:4 no_tx_chars:0
# no_rx_chars:10 rx_fifo_threshold:8 no_tx_chars:0
# no_rx_chars:2 rx_fifo_threshold:8 no_tx_chars:0
# no_rx_chars:3 rx_fifo_threshold:1 no_tx_chars:0
# no_rx_chars:2 rx_fifo_threshold:1 no_tx_chars:0
# no_rx_chars:2 rx_fifo_threshold:1 no_tx_chars:0
# no_rx_chars:2 rx_fifo_threshold:1 no_tx_chars:0
# no_rx_chars:2 rx_fifo_threshold:1 no_tx_chars:0
# no_rx_chars:1 rx_fifo_threshold:1 no_tx_chars:0
# no_rx_chars:8 rx_fifo_threshold:4 no_tx_chars:0
# no_rx_chars:4 rx_fifo_threshold:4 no_tx_chars:0
# no_rx_chars:10 rx_fifo_threshold:4 no_tx_chars:3
# no_rx_chars:6 rx_fifo_threshold:4 no_tx_chars:3
# no_rx_chars:2 rx_fifo_threshold:4 no_tx_chars:3
# no_rx_chars:2 rx_fifo_threshold:4 no_tx_chars:0
# no_rx_chars:5 rx_fifo_threshold:1 no_tx_chars:0
# no_rx_chars:4 rx_fifo_threshold:1 no_tx_chars:0
# no_rx_chars:4 rx_fifo_threshold:1 no_tx_chars:0
# no_rx_chars:3 rx_fifo_threshold:1 no_tx_chars:0
# no_rx_chars:3 rx_fifo_threshold:1 no_tx_chars:0
# no_rx_chars:2 rx_fifo_threshold:1 no_tx_chars:0
# no_rx_chars:2 rx_fifo_threshold:1 no_tx_chars:0
# no_rx_chars:2 rx_fifo_threshold:1 no_tx_chars:0
# no_rx_chars:2 rx_fifo_threshold:1 no_tx_chars:0
# no_rx_chars:1 rx_fifo_threshold:1 no_tx_chars:0
# no_rx_chars:11 rx_fifo_threshold:4 no_tx_chars:0
# UVM_WARNING ../agents/uart_agent/uart_monitor.svh(95) @ 1913890: uvm_test_top.m_env.m_rx_uart_agent.m_uart_monitor [startBitErrorDetect] False start bit detected
# UVM_INFO ../uvm_tb/env/uart_rx_scoreboard.svh(93) @ 1918415: uvm_test_top.m_env.rx_sb [monitor_uart] RX Data error detected: PE:0 FE:1 LCR:2b
# UVM_INFO ../uvm_tb/env/uart_rx_scoreboard.svh(93) @ 1918465: uvm_test_top.m_env.rx_sb [monitor_uart] RX Data error detected: PE:1 FE:1 LCR:2b
# no_rx_chars:7 rx_fifo_threshold:4 no_tx_chars:0
# no_rx_chars:7 rx_fifo_threshold:4 no_tx_chars:0
# no_rx_chars:3 rx_fifo_threshold:4 no_tx_chars:0
# no_rx_chars:8 rx_fifo_threshold:4 no_tx_chars:0
# no_rx_chars:4 rx_fifo_threshold:4 no_tx_chars:0
# no_rx_chars:7 rx_fifo_threshold:4 no_tx_chars:0
# no_rx_chars:7 rx_fifo_threshold:4 no_tx_chars:0
# no_rx_chars:7 rx_fifo_threshold:4 no_tx_chars:0
# no_rx_chars:3 rx_fifo_threshold:4 no_tx_chars:0
# no_rx_chars:14 rx_fifo_threshold:8 no_tx_chars:3
# no_rx_chars:6 rx_fifo_threshold:8 no_tx_chars:3
# no_rx_chars:6 rx_fifo_threshold:8 no_tx_chars:0
# no_rx_chars:4 rx_fifo_threshold:1 no_tx_chars:0
# no_rx_chars:3 rx_fifo_threshold:1 no_tx_chars:0
# no_rx_chars:3 rx_fifo_threshold:1 no_tx_chars:0
# no_rx_chars:3 rx_fifo_threshold:1 no_tx_chars:0
# no_rx_chars:3 rx_fifo_threshold:1 no_tx_chars:0
# no_rx_chars:2 rx_fifo_threshold:1 no_tx_chars:0
# no_rx_chars:2 rx_fifo_threshold:1 no_tx_chars:0
# no_rx_chars:1 rx_fifo_threshold:1 no_tx_chars:0
# no_rx_chars:2 rx_fifo_threshold:1 no_tx_chars:0
# no_rx_chars:1 rx_fifo_threshold:1 no_tx_chars:0
# no_rx_chars:7 rx_fifo_threshold:4 no_tx_chars:0
# no_rx_chars:7 rx_fifo_threshold:4 no_tx_chars:0
# no_rx_chars:7 rx_fifo_threshold:4 no_tx_chars:0
# no_rx_chars:3 rx_fifo_threshold:4 no_tx_chars:0
# no_rx_chars:18 rx_fifo_threshold:14 no_tx_chars:0
# no_rx_chars:18 rx_fifo_threshold:14 no_tx_chars:0
# no_rx_chars:18 rx_fifo_threshold:14 no_tx_chars:0
# no_rx_chars:4 rx_fifo_threshold:14 no_tx_chars:0
# no_rx_chars:8 rx_fifo_threshold:4 no_tx_chars:1
# no_rx_chars:4 rx_fifo_threshold:4 no_tx_chars:1
# UVM_INFO ../uvm_tb/env/uart_rx_scoreboard.svh(93) @ 2233635: uvm_test_top.m_env.rx_sb [monitor_uart] RX Data error detected: PE:0 FE:1 LCR:33
# UVM_INFO ../uvm_tb/env/uart_rx_scoreboard.svh(93) @ 2233685: uvm_test_top.m_env.rx_sb [monitor_uart] RX Data error detected: PE:0 FE:1 LCR:33
# no_rx_chars:0 rx_fifo_threshold:4 no_tx_chars:1
# no_rx_chars:0 rx_fifo_threshold:4 no_tx_chars:1
# no_rx_chars:0 rx_fifo_threshold:4 no_tx_chars:0
# UVM_ERROR ../uvm_tb/env/uart_rx_scoreboard.svh(133) @ 2258575: uvm_test_top.m_env.rx_sb [monitor_uart] Error in LSR FE bit - expected:0 actual:0
# no_rx_chars:16 rx_fifo_threshold:8 no_tx_chars:0
# no_rx_chars:8 rx_fifo_threshold:8 no_tx_chars:0
# no_rx_chars:12 rx_fifo_threshold:4 no_tx_chars:3
# no_rx_chars:8 rx_fifo_threshold:4 no_tx_chars:3
# no_rx_chars:4 rx_fifo_threshold:4 no_tx_chars:3
# no_rx_chars:0 rx_fifo_threshold:4 no_tx_chars:3
