sim/word_format_int.log
# vsim uart_tb "+UVM_TESTNAME=word_format_int_test" -do "coverage save word_format_int.ucdb -onexit;run -all" -l word_format_int.log -c -coverage 
# Start time: 16:26:58 on Aug 13,2023
# ** Note: (vsim-8009) Loading existing optimized design _opt1
# //  Questa Sim-64
# //  Version 10.6c win64 Jul 26 2017
# //
# //  Copyright 1991-2017 Mentor Graphics Corporation
# //  All Rights Reserved.
# //
# //  QuestaSim and its associated documentation contain trade
# //  secrets and commercial or financial information that are the property of
# //  Mentor Graphics Corporation and are privileged, confidential,
# //  and exempt from disclosure under the Freedom of Information Act,
# //  5 U.S.C. Section 552. Furthermore, this information
# //  is prohibited from disclosure under the Trade Secrets Act,
# //  18 U.S.C. Section 1905.
# //
# Loading sv_std.std
# Loading work.apb_if(fast)
# Loading work.modem_if(fast)
# Loading mtiUvm.uvm_pkg
# Loading work.uart_agent_pkg(fast)
# Loading work.uart_seq_pkg(fast)
# Loading work.uart_reg_pkg(fast)
# Loading work.modem_agent_pkg(fast)
# Loading work.apb_agent_pkg(fast)
# Loading work.uart_env_pkg(fast)
# Loading work.host_if_seq_pkg(fast)
# Loading work.uart_vseq_pkg(fast)
# Loading work.uart_test_pkg(fast)
# Loading work.serial_if(fast)
# Loading work.interrupt_if(fast)
# Loading work.uart_tb(fast)
# Loading work.uart_16550(fast)
# Loading work.apb_monitor(fast)
# Loading mtiUvm.questa_uvm_pkg(fast)
# Loading D:/icTools/qsim10.6setupFiles/uvm-1.1d\win64\uvm_dpi.dll
# coverage save word_format_int.ucdb -onexit
# run -all
# ----------------------------------------------------------------
# UVM-1.1d
# (C) 2007-2013 Mentor Graphics Corporation
# (C) 2007-2013 Cadence Design Systems, Inc.
# (C) 2006-2013 Synopsys, Inc.
# (C) 2011-2013 Cypress Semiconductor Corp.
# ----------------------------------------------------------------
# 
#   ***********       IMPORTANT RELEASE NOTES         ************
# 
#   You are using a version of the UVM library that has been compiled
#   with `UVM_NO_DEPRECATED undefined.
#   See http://www.eda.org/svdb/view.php?id=3313 for more details.
# 
#   You are using a version of the UVM library that has been compiled
#   with `UVM_OBJECT_MUST_HAVE_CONSTRUCTOR undefined.
#   See http://www.eda.org/svdb/view.php?id=3770 for more details.
# 
#       (Specify +UVM_NO_RELNOTES to turn off this notice)
# 
# UVM_INFO verilog_src/questa_uvm_pkg-1.2/src/questa_uvm_pkg.sv(215) @ 0: reporter [Questa UVM] QUESTA_UVM-1.2.3
# UVM_INFO verilog_src/questa_uvm_pkg-1.2/src/questa_uvm_pkg.sv(217) @ 0: reporter [Questa UVM]  questa_uvm::init(+struct)
# UVM_INFO @ 0: reporter [RNTST] Running test word_format_int_test...
# UVM_INFO ../uvm_tb/env/uart_rx_scoreboard.svh(93) @ 151105: uvm_test_top.m_env.rx_sb [monitor_uart] RX Data error detected: PE:0 FE:1 LCR:0
# UVM_ERROR ../uvm_tb/env/uart_rx_scoreboard.svh(133) @ 151155: uvm_test_top.m_env.rx_sb [monitor_uart] Error in LSR FE bit - expected:0 actual:0
# UVM_INFO ../uvm_tb/env/uart_rx_scoreboard.svh(93) @ 251445: uvm_test_top.m_env.rx_sb [monitor_uart] RX Data error detected: PE:0 FE:1 LCR:0
# UVM_INFO ../uvm_tb/env/uart_rx_scoreboard.svh(93) @ 254025: uvm_test_top.m_env.rx_sb [monitor_uart] RX Data error detected: PE:0 FE:1 LCR:0
# UVM_INFO ../uvm_tb/env/uart_rx_scoreboard.svh(93) @ 342165: uvm_test_top.m_env.rx_sb [monitor_uart] RX Data error detected: PE:0 FE:1 LCR:0
# ** Error: (vsim-8567) Illegal cross bin was hit. The bin counter for the bin 'lsr_read_cg.FIFO_ERROR_STATUS.missing_fifo_error' is 1.
#    Time: 342495 ns  Iteration: 1  Region: /uvm_pkg::uvm_task_phase::execute
# UVM_INFO ../uvm_tb/env/uart_rx_scoreboard.svh(93) @ 546205: uvm_test_top.m_env.rx_sb [monitor_uart] RX Data error detected: PE:0 FE:1 LCR:0
# UVM_INFO ../uvm_tb/env/uart_rx_scoreboard.svh(93) @ 600515: uvm_test_top.m_env.rx_sb [monitor_uart] RX Data error detected: PE:0 FE:1 LCR:0
# UVM_WARNING ../agents/uart_agent/uart_monitor.svh(95) @ 1069550: uvm_test_top.m_env.m_rx_uart_agent.m_uart_monitor [startBitErrorDetect] False start bit detected
# UVM_INFO ../uvm_tb/env/uart_rx_scoreboard.svh(93) @ 1089715: uvm_test_top.m_env.rx_sb [monitor_uart] RX Data error detected: PE:0 FE:1 LCR:0
# UVM_ERROR ../uvm_tb/env/uart_rx_scoreboard.svh(100) @ 1089715: uvm_test_top.m_env.rx_sb [monitor_uart] Error in observed UART RX data expected:1c actual:e LCR:0
# UVM_INFO ../uvm_tb/env/uart_rx_scoreboard.svh(93) @ 1089865: uvm_test_top.m_env.rx_sb [monitor_uart] RX Data error detected: PE:0 FE:1 LCR:0
# UVM_INFO ../uvm_tb/env/uart_rx_scoreboard.svh(93) @ 1089915: uvm_test_top.m_env.rx_sb [monitor_uart] RX Data error detected: PE:0 FE:1 LCR:0
# UVM_INFO ../uvm_tb/env/uart_rx_scoreboard.svh(93) @ 1159565: uvm_test_top.m_env.rx_sb [monitor_uart] RX Data error detected: PE:0 FE:1 LCR:0
# UVM_ERROR ../uvm_tb/env/uart_rx_scoreboard.svh(133) @ 1188375: uvm_test_top.m_env.rx_sb [monitor_uart] Error in LSR FE bit - expected:0 actual:0
# UVM_INFO ../uvm_tb/env/uart_rx_scoreboard.svh(93) @ 1269375: uvm_test_top.m_env.rx_sb [monitor_uart] RX Data error detected: PE:0 FE:1 LCR:0
# UVM_WARNING ../agents/uart_agent/uart_monitor.svh(95) @ 1371640: uvm_test_top.m_env.m_rx_uart_agent.m_uart_monitor [startBitErrorDetect] False start bit detected
# UVM_INFO ../uvm_tb/env/uart_rx_scoreboard.svh(93) @ 1379955: uvm_test_top.m_env.rx_sb [monitor_uart] RX Data error detected: PE:0 FE:1 LCR:0
# UVM_ERROR ../uvm_tb/env/uart_rx_scoreboard.svh(100) @ 1379955: uvm_test_top.m_env.rx_sb [monitor_uart] Error in observed UART RX data expected:4 actual:2 LCR:0
# UVM_INFO ../uvm_tb/env/uart_rx_scoreboard.svh(93) @ 1714335: uvm_test_top.m_env.rx_sb [monitor_uart] RX Data error detected: PE:0 FE:1 LCR:0
# UVM_ERROR ../uvm_tb/env/uart_rx_scoreboard.svh(133) @ 1714385: uvm_test_top.m_env.rx_sb [monitor_uart] Error in LSR FE bit - expected:0 actual:0
# UVM_INFO ../uvm_tb/env/uart_rx_scoreboard.svh(93) @ 1734695: uvm_test_top.m_env.rx_sb [monitor_uart] RX Data error detected: PE:0 FE:1 LCR:0
# ** Error: (vsim-8567) Illegal cross bin was hit. The bin counter for the bin 'lsr_read_cg.FIFO_ERROR_STATUS.missing_fifo_error' is 2.
#    Time: 1734745 ns  Iteration: 1  Region: /uvm_pkg::uvm_task_phase::execute
# UVM_INFO ../uvm_tb/env/uart_rx_scoreboard.svh(93) @ 1736755: uvm_test_top.m_env.rx_sb [monitor_uart] RX Data error detected: PE:0 FE:1 LCR:0
# ** Error: (vsim-8567) Illegal cross bin was hit. The bin counter for the bin 'lsr_read_cg.FIFO_ERROR_STATUS.missing_fifo_error' is 3.
#    Time: 1736805 ns  Iteration: 1  Region: /uvm_pkg::uvm_task_phase::execute
# UVM_INFO ../uvm_tb/env/uart_rx_scoreboard.svh(93) @ 1896365: uvm_test_top.m_env.rx_sb [monitor_uart] RX Data error detected: PE:0 FE:1 LCR:0
# UVM_INFO ../uvm_tb/env/uart_rx_scoreboard.svh(93) @ 1896415: uvm_test_top.m_env.rx_sb [monitor_uart] RX Data error detected: PE:0 FE:1 LCR:0
# UVM_INFO ../uvm_tb/env/uart_rx_scoreboard.svh(93) @ 1896465: uvm_test_top.m_env.rx_sb [monitor_uart] RX Data error detected: PE:0 FE:1 LCR:0
# ** Error: (vsim-8567) Illegal cross bin was hit. The bin counter for the bin 'lsr_read_cg.FIFO_ERROR_STATUS.missing_fifo_error' is 4.
#    Time: 1896515 ns  Iteration: 1  Region: /uvm_pkg::uvm_task_phase::execute
# UVM_INFO ../uvm_tb/env/uart_rx_scoreboard.svh(93) @ 1897965: uvm_test_top.m_env.rx_sb [monitor_uart] RX Data error detected: PE:0 FE:1 LCR:0
# ** Error: (vsim-8567) Illegal cross bin was hit. The bin counter for the bin 'lsr_read_cg.FIFO_ERROR_STATUS.missing_fifo_error' is 5.
#    Time: 1898015 ns  Iteration: 1  Region: /uvm_pkg::uvm_task_phase::execute
# UVM_ERROR ../uvm_tb/env/uart_rx_scoreboard.svh(100) @ 1900025: uvm_test_top.m_env.rx_sb [monitor_uart] Error in observed UART RX data expected:e actual:17 LCR:0
# ** Error: (vsim-8567) Illegal cross bin was hit. The bin counter for the bin 'lsr_read_cg.FIFO_ERROR_STATUS.missing_fifo_error' is 6.
#    Time: 1900075 ns  Iteration: 1  Region: /uvm_pkg::uvm_task_phase::execute
# UVM_ERROR ../uvm_tb/env/uart_rx_scoreboard.svh(133) @ 1900075: uvm_test_top.m_env.rx_sb [monitor_uart] Error in LSR FE bit - expected:0 actual:1
# UVM_INFO ../uvm_tb/env/uart_rx_scoreboard.svh(93) @ 1902225: uvm_test_top.m_env.rx_sb [monitor_uart] RX Data error detected: PE:0 FE:1 LCR:0
# ** Error: (vsim-8567) Illegal cross bin was hit. The bin counter for the bin 'lsr_read_cg.FIFO_ERROR_STATUS.missing_fifo_error' is 7.
#    Time: 1902275 ns  Iteration: 1  Region: /uvm_pkg::uvm_task_phase::execute
# UVM_ERROR ../uvm_tb/env/uart_rx_scoreboard.svh(100) @ 1904705: uvm_test_top.m_env.rx_sb [monitor_uart] Error in observed UART RX data expected:5 actual:19 LCR:0
# ** Error: (vsim-8567) Illegal cross bin was hit. The bin counter for the bin 'lsr_read_cg.FIFO_ERROR_STATUS.missing_fifo_error' is 8.
#    Time: 1904755 ns  Iteration: 1  Region: /uvm_pkg::uvm_task_phase::execute
# UVM_ERROR ../uvm_tb/env/uart_rx_scoreboard.svh(133) @ 1904755: uvm_test_top.m_env.rx_sb [monitor_uart] Error in LSR FE bit - expected:0 actual:1
# UVM_ERROR ../uvm_tb/env/uart_rx_scoreboard.svh(100) @ 1907745: uvm_test_top.m_env.rx_sb [monitor_uart] Error in observed UART RX data expected:17 actual:1b LCR:0
# UVM_ERROR ../uvm_tb/env/uart_rx_scoreboard.svh(100) @ 1910085: uvm_test_top.m_env.rx_sb [monitor_uart] Error in observed UART RX data expected:7 actual:1a LCR:0
# ** Error: (vsim-8567) Illegal cross bin was hit. The bin counter for the bin 'lsr_read_cg.FIFO_ERROR_STATUS.missing_fifo_error' is 9.
#    Time: 1911115 ns  Iteration: 1  Region: /uvm_pkg::uvm_task_phase::execute
# UVM_ERROR ../uvm_tb/env/uart_rx_scoreboard.svh(133) @ 1911115: uvm_test_top.m_env.rx_sb [monitor_uart] Error in LSR FE bit - expected:0 actual:1
# UVM_ERROR ../uvm_tb/env/uart_rx_scoreboard.svh(100) @ 1928555: uvm_test_top.m_env.rx_sb [monitor_uart] Error in observed UART RX data expected:13 actual:1e LCR:0
# UVM_INFO ../uvm_tb/env/uart_rx_scoreboard.svh(93) @ 1983575: uvm_test_top.m_env.rx_sb [monitor_uart] RX Data error detected: PE:0 FE:1 LCR:0
# UVM_INFO verilog_src/uvm-1.1d/src/base/uvm_objection.svh(1268) @ 2234325: reporter [TEST_DONE] 'run' phase is ready to proceed to the 'extract' phase
# UVM_INFO ../uvm_tb/env/baud_rate_checker.svh(144) @ 2234325: uvm_test_top.m_env.br_sb [report_phase] No baud rate errors detected
# UVM_INFO ../uvm_tb/env/uart_modem_scoreboard.svh(207) @ 2234325: uvm_test_top.m_env.modem_sb [uart_modem_scoreboard::report_phase] No modem errors observed
# UVM_ERROR ../uvm_tb/env/uart_rx_scoreboard.svh(159) @ 2234325: uvm_test_top.m_env.rx_sb [report_phase] 6 characters received with undetected errors from 717 received overall
# UVM_ERROR ../uvm_tb/env/uart_rx_scoreboard.svh(162) @ 2234325: uvm_test_top.m_env.rx_sb [report_phase] 7 characters received with data_errors from 717 received overall
# UVM_INFO ../uvm_tb/env/uart_tx_scoreboard.svh(134) @ 2234325: uvm_test_top.m_env.tx_sb [report_phase] 798 characters transmitted from the UART with no errors
# UVM_ERROR ../uvm_tb/tests/word_format_int_test.svh(48) @ 2234325: uvm_test_top [*** UVM TEST FAILED ***] RX or TX data errors detected - see scoreboard reports for more detail
# 
# --- UVM Report Summary ---
# 
# ** Report counts by severity
# UVM_INFO :   28
# UVM_WARNING :    2
# UVM_ERROR :   16
# UVM_FATAL :    0
# ** Report counts by id
# [*** UVM TEST FAILED ***]     1
# [Questa UVM]     2
# [RNTST]     1
# [TEST_DONE]     1
# [monitor_uart]    34
# [report_phase]     4
# [startBitErrorDetect]     2
# [uart_modem_scoreboard::report_phase]     1
# ** Note: $finish    : D:/icTools/qsim10.6setupFiles/win64/../verilog_src/uvm-1.1d/src/base/uvm_root.svh(430)
#    Time: 2234325 ns  Iteration: 67  Instance: /uart_tb
# Saving coverage database on exit...
# End time: 16:27:09 on Aug 13,2023, Elapsed time: 0:00:11
# Errors: 9, Warnings: 0
