sim/word_format_int_4.log
# vsim -sv_seed random uart_tb "+UVM_TESTNAME=word_format_int_test" -do "coverage save word_format_int_4.ucdb -onexit; run -all" -l word_format_int_4.log -c -coverage 
# Start time: 16:49:54 on Aug 21,2023
# ** Note: (vsim-3813) Design is being optimized due to module recompilation...
# //  Questa Sim-64
# //  Version 10.6c win64 Jul 26 2017
# //
# //  Copyright 1991-2017 Mentor Graphics Corporation
# //  All Rights Reserved.
# //
# //  QuestaSim and its associated documentation contain trade
# //  secrets and commercial or financial information that are the property of
# //  Mentor Graphics Corporation and are privileged, confidential,
# //  and exempt from disclosure under the Freedom of Information Act,
# //  5 U.S.C. Section 552. Furthermore, this information
# //  is prohibited from disclosure under the Trade Secrets Act,
# //  18 U.S.C. Section 1905.
# //
# Loading sv_std.std
# Loading work.apb_if(fast)
# Loading work.modem_if(fast)
# Loading mtiUvm.uvm_pkg
# Loading work.uart_agent_pkg(fast)
# Loading work.uart_seq_pkg(fast)
# Loading work.uart_reg_pkg(fast)
# Loading work.modem_agent_pkg(fast)
# Loading work.apb_agent_pkg(fast)
# Loading work.uart_env_pkg(fast)
# Loading work.host_if_seq_pkg(fast)
# Loading work.uart_vseq_pkg(fast)
# Loading work.uart_test_pkg(fast)
# Loading work.serial_if(fast)
# Loading work.interrupt_if(fast)
# Loading work.uart_tb(fast)
# Loading work.uart_16550(fast)
# Loading work.apb_monitor(fast)
# Loading mtiUvm.questa_uvm_pkg(fast)
# Loading D:/icTools/qsim10.6setupFiles/uvm-1.1d\win64\uvm_dpi.dll
# Sv_Seed = 2307175950
# coverage save word_format_int_4.ucdb -onexit
#  run -all
# ----------------------------------------------------------------
# UVM-1.1d
# (C) 2007-2013 Mentor Graphics Corporation
# (C) 2007-2013 Cadence Design Systems, Inc.
# (C) 2006-2013 Synopsys, Inc.
# (C) 2011-2013 Cypress Semiconductor Corp.
# ----------------------------------------------------------------
# 
#   ***********       IMPORTANT RELEASE NOTES         ************
# 
#   You are using a version of the UVM library that has been compiled
#   with `UVM_NO_DEPRECATED undefined.
#   See http://www.eda.org/svdb/view.php?id=3313 for more details.
# 
#   You are using a version of the UVM library that has been compiled
#   with `UVM_OBJECT_MUST_HAVE_CONSTRUCTOR undefined.
#   See http://www.eda.org/svdb/view.php?id=3770 for more details.
# 
#       (Specify +UVM_NO_RELNOTES to turn off this notice)
# 
# UVM_INFO verilog_src/questa_uvm_pkg-1.2/src/questa_uvm_pkg.sv(215) @ 0: reporter [Questa UVM] QUESTA_UVM-1.2.3
# UVM_INFO verilog_src/questa_uvm_pkg-1.2/src/questa_uvm_pkg.sv(217) @ 0: reporter [Questa UVM]  questa_uvm::init(+struct)
# UVM_INFO @ 0: reporter [RNTST] Running test word_format_int_test...
# UVM_INFO ../uvm_tb/env/uart_rx_scoreboard.svh(93) @ 70475: uvm_test_top.m_env.rx_sb [monitor_uart] RX Data error detected: PE:0 FE:1 LCR:1
# ** Error: (vsim-8567) Illegal cross bin was hit. The bin counter for the bin 'lsr_read_cg.FIFO_ERROR_STATUS.missing_fifo_error' is 1.
#    Time: 70525 ns  Iteration: 1  Region: /uvm_pkg::uvm_task_phase::execute
# UVM_WARNING ../agents/uart_agent/uart_monitor.svh(95) @ 72690: uvm_test_top.m_env.m_rx_uart_agent.m_uart_monitor [startBitErrorDetect] False start bit detected
# UVM_INFO ../uvm_tb/env/uart_rx_scoreboard.svh(93) @ 72815: uvm_test_top.m_env.rx_sb [monitor_uart] RX Data error detected: PE:0 FE:1 LCR:1
# ** Error: (vsim-8567) Illegal cross bin was hit. The bin counter for the bin 'lsr_read_cg.FIFO_ERROR_STATUS.missing_fifo_error' is 2.
#    Time: 72865 ns  Iteration: 1  Region: /uvm_pkg::uvm_task_phase::execute
# UVM_INFO ../uvm_tb/env/uart_rx_scoreboard.svh(93) @ 75575: uvm_test_top.m_env.rx_sb [monitor_uart] RX Data error detected: PE:0 FE:1 LCR:1
# ** Error: (vsim-8567) Illegal cross bin was hit. The bin counter for the bin 'lsr_read_cg.FIFO_ERROR_STATUS.missing_fifo_error' is 3.
#    Time: 75625 ns  Iteration: 1  Region: /uvm_pkg::uvm_task_phase::execute
# UVM_INFO ../uvm_tb/env/uart_rx_scoreboard.svh(93) @ 78055: uvm_test_top.m_env.rx_sb [monitor_uart] RX Data error detected: PE:0 FE:1 LCR:1
# ** Error: (vsim-8567) Illegal cross bin was hit. The bin counter for the bin 'lsr_read_cg.FIFO_ERROR_STATUS.missing_fifo_error' is 4.
#    Time: 78985 ns  Iteration: 1  Region: /uvm_pkg::uvm_task_phase::execute
# UVM_INFO ../uvm_tb/env/uart_rx_scoreboard.svh(93) @ 89385: uvm_test_top.m_env.rx_sb [monitor_uart] RX Data error detected: PE:0 FE:1 LCR:2
# UVM_WARNING ../agents/uart_agent/uart_monitor.svh(95) @ 89390: uvm_test_top.m_env.m_rx_uart_agent.m_uart_monitor [startBitErrorDetect] False start bit detected
# UVM_INFO ../uvm_tb/env/uart_rx_scoreboard.svh(93) @ 89435: uvm_test_top.m_env.rx_sb [monitor_uart] RX Data error detected: PE:0 FE:1 LCR:2
# UVM_INFO ../uvm_tb/env/uart_rx_scoreboard.svh(93) @ 89535: uvm_test_top.m_env.rx_sb [monitor_uart] RX Data error detected: PE:0 FE:1 LCR:2
# UVM_INFO ../uvm_tb/env/uart_rx_scoreboard.svh(93) @ 101385: uvm_test_top.m_env.rx_sb [monitor_uart] RX Data error detected: PE:0 FE:1 LCR:2
# UVM_INFO ../uvm_tb/env/uart_rx_scoreboard.svh(93) @ 101435: uvm_test_top.m_env.rx_sb [monitor_uart] RX Data error detected: PE:0 FE:1 LCR:2
# UVM_INFO ../uvm_tb/env/uart_rx_scoreboard.svh(93) @ 101535: uvm_test_top.m_env.rx_sb [monitor_uart] RX Data error detected: PE:0 FE:1 LCR:2
# ** Error: (vsim-8567) Illegal cross bin was hit. The bin counter for the bin 'lsr_read_cg.FIFO_ERROR_STATUS.missing_fifo_error' is 5.
#    Time: 126115 ns  Iteration: 1  Region: /uvm_pkg::uvm_task_phase::execute
# UVM_INFO ../uvm_tb/env/uart_rx_scoreboard.svh(93) @ 126165: uvm_test_top.m_env.rx_sb [monitor_uart] RX Data error detected: PE:0 FE:1 LCR:2
# UVM_INFO ../uvm_tb/env/uart_rx_scoreboard.svh(93) @ 332665: uvm_test_top.m_env.rx_sb [monitor_uart] RX Data error detected: PE:0 FE:1 LCR:7
# UVM_WARNING ../agents/uart_agent/uart_monitor.svh(95) @ 592640: uvm_test_top.m_env.m_rx_uart_agent.m_uart_monitor [startBitErrorDetect] False start bit detected
# UVM_INFO ../uvm_tb/env/uart_rx_scoreboard.svh(93) @ 592785: uvm_test_top.m_env.rx_sb [monitor_uart] RX Data error detected: PE:0 FE:1 LCR:c
# ** Error: (vsim-8567) Illegal cross bin was hit. The bin counter for the bin 'lsr_read_cg.FIFO_ERROR_STATUS.missing_fifo_error' is 7.
#    Time: 592835 ns  Iteration: 1  Region: /uvm_pkg::uvm_task_phase::execute
# UVM_INFO ../uvm_tb/env/uart_rx_scoreboard.svh(93) @ 738905: uvm_test_top.m_env.rx_sb [monitor_uart] RX Data error detected: PE:1 FE:0 LCR:10
# UVM_INFO ../uvm_tb/env/uart_rx_scoreboard.svh(93) @ 916625: uvm_test_top.m_env.rx_sb [monitor_uart] RX Data error detected: PE:0 FE:1 LCR:15
# UVM_INFO ../uvm_tb/env/uart_rx_scoreboard.svh(93) @ 947555: uvm_test_top.m_env.rx_sb [monitor_uart] RX Data error detected: PE:0 FE:1 LCR:16
# ** Error: (vsim-8567) Illegal cross bin was hit. The bin counter for the bin 'lsr_read_cg.FIFO_ERROR_STATUS.missing_fifo_error' is 8.
#    Time: 947605 ns  Iteration: 1  Region: /uvm_pkg::uvm_task_phase::execute
# UVM_INFO ../uvm_tb/env/uart_rx_scoreboard.svh(93) @ 952935: uvm_test_top.m_env.rx_sb [monitor_uart] RX Data error detected: PE:0 FE:1 LCR:16
# UVM_ERROR ../uvm_tb/env/uart_rx_scoreboard.svh(133) @ 952985: uvm_test_top.m_env.rx_sb [monitor_uart] Error in LSR FE bit - expected:0 actual:0
# UVM_INFO ../uvm_tb/env/uart_rx_scoreboard.svh(93) @ 959155: uvm_test_top.m_env.rx_sb [monitor_uart] RX Data error detected: PE:0 FE:1 LCR:16
# UVM_WARNING ../agents/uart_agent/uart_monitor.svh(95) @ 965470: uvm_test_top.m_env.m_rx_uart_agent.m_uart_monitor [startBitErrorDetect] False start bit detected
# UVM_ERROR ../uvm_tb/env/uart_rx_scoreboard.svh(133) @ 968385: uvm_test_top.m_env.rx_sb [monitor_uart] Error in LSR FE bit - expected:0 actual:0
# UVM_INFO ../uvm_tb/env/uart_rx_scoreboard.svh(93) @ 976505: uvm_test_top.m_env.rx_sb [monitor_uart] RX Data error detected: PE:0 FE:1 LCR:17
# UVM_WARNING ../agents/uart_agent/uart_monitor.svh(95) @ 1066640: uvm_test_top.m_env.m_rx_uart_agent.m_uart_monitor [startBitErrorDetect] False start bit detected
# UVM_INFO ../uvm_tb/env/uart_rx_scoreboard.svh(93) @ 1071415: uvm_test_top.m_env.rx_sb [monitor_uart] RX Data error detected: PE:0 FE:1 LCR:1a
# UVM_INFO ../uvm_tb/env/uart_rx_scoreboard.svh(93) @ 1336635: uvm_test_top.m_env.rx_sb [monitor_uart] RX Data error detected: PE:0 FE:1 LCR:21
# UVM_INFO ../uvm_tb/env/uart_rx_scoreboard.svh(93) @ 1336685: uvm_test_top.m_env.rx_sb [monitor_uart] RX Data error detected: PE:0 FE:1 LCR:21
# UVM_INFO ../uvm_tb/env/uart_rx_scoreboard.svh(93) @ 1346575: uvm_test_top.m_env.rx_sb [monitor_uart] RX Data error detected: PE:0 FE:1 LCR:21
# UVM_INFO ../uvm_tb/env/uart_rx_scoreboard.svh(93) @ 1346625: uvm_test_top.m_env.rx_sb [monitor_uart] RX Data error detected: PE:0 FE:1 LCR:21
# UVM_INFO ../uvm_tb/env/uart_rx_scoreboard.svh(93) @ 1346675: uvm_test_top.m_env.rx_sb [monitor_uart] RX Data error detected: PE:0 FE:1 LCR:21
# UVM_INFO ../uvm_tb/env/uart_rx_scoreboard.svh(93) @ 1354515: uvm_test_top.m_env.rx_sb [monitor_uart] RX Data error detected: PE:0 FE:1 LCR:21
# UVM_INFO ../uvm_tb/env/uart_rx_scoreboard.svh(93) @ 1686895: uvm_test_top.m_env.rx_sb [monitor_uart] RX Data error detected: PE:1 FE:1 LCR:28
# ** Error: (vsim-8567) Illegal cross bin was hit. The bin counter for the bin 'lsr_read_cg.FIFO_ERROR_STATUS.missing_fifo_error' is 9.
#    Time: 1687505 ns  Iteration: 1  Region: /uvm_pkg::uvm_task_phase::execute
# UVM_INFO ../uvm_tb/env/uart_rx_scoreboard.svh(93) @ 1700205: uvm_test_top.m_env.rx_sb [monitor_uart] RX Data error detected: PE:0 FE:1 LCR:29
# UVM_ERROR ../uvm_tb/env/uart_rx_scoreboard.svh(106) @ 1700255: uvm_test_top.m_env.rx_sb [monitor_uart] Error in observed UART RX data expected:1f actual:2f LCR:29
# UVM_INFO ../uvm_tb/env/uart_rx_scoreboard.svh(93) @ 1700305: uvm_test_top.m_env.rx_sb [monitor_uart] RX Data error detected: PE:1 FE:0 LCR:29
# UVM_ERROR ../uvm_tb/env/uart_rx_scoreboard.svh(106) @ 1700305: uvm_test_top.m_env.rx_sb [monitor_uart] Error in observed UART RX data expected:f actual:1c LCR:29
# UVM_INFO ../uvm_tb/env/uart_rx_scoreboard.svh(93) @ 1700355: uvm_test_top.m_env.rx_sb [monitor_uart] RX Data error detected: PE:0 FE:1 LCR:29
# UVM_ERROR ../uvm_tb/env/uart_rx_scoreboard.svh(106) @ 1700355: uvm_test_top.m_env.rx_sb [monitor_uart] Error in observed UART RX data expected:3 actual:28 LCR:29
# UVM_ERROR ../uvm_tb/env/uart_rx_scoreboard.svh(133) @ 1700405: uvm_test_top.m_env.rx_sb [monitor_uart] Error in LSR FE bit - expected:0 actual:0
# UVM_INFO ../uvm_tb/env/uart_rx_scoreboard.svh(93) @ 1703395: uvm_test_top.m_env.rx_sb [monitor_uart] RX Data error detected: PE:1 FE:1 LCR:29
# UVM_ERROR ../uvm_tb/env/uart_rx_scoreboard.svh(106) @ 1703395: uvm_test_top.m_env.rx_sb [monitor_uart] Error in observed UART RX data expected:7 actual:28 LCR:29
# UVM_ERROR ../uvm_tb/env/uart_rx_scoreboard.svh(129) @ 1703445: uvm_test_top.m_env.rx_sb [monitor_uart] Error in LSR PE bit - expected:1 actual:0
# UVM_ERROR ../uvm_tb/env/uart_rx_scoreboard.svh(133) @ 1703445: uvm_test_top.m_env.rx_sb [monitor_uart] Error in LSR FE bit - expected:1 actual:0
# UVM_INFO ../uvm_tb/env/uart_rx_scoreboard.svh(93) @ 1706715: uvm_test_top.m_env.rx_sb [monitor_uart] RX Data error detected: PE:1 FE:1 LCR:29
# UVM_ERROR ../uvm_tb/env/uart_rx_scoreboard.svh(106) @ 1706715: uvm_test_top.m_env.rx_sb [monitor_uart] Error in observed UART RX data expected:f actual:28 LCR:29
# UVM_ERROR ../uvm_tb/env/uart_rx_scoreboard.svh(129) @ 1706765: uvm_test_top.m_env.rx_sb [monitor_uart] Error in LSR PE bit - expected:1 actual:0
# UVM_ERROR ../uvm_tb/env/uart_rx_scoreboard.svh(133) @ 1706765: uvm_test_top.m_env.rx_sb [monitor_uart] Error in LSR FE bit - expected:1 actual:0
# UVM_WARNING ../agents/uart_agent/uart_monitor.svh(95) @ 1710850: uvm_test_top.m_env.m_rx_uart_agent.m_uart_monitor [startBitErrorDetect] False start bit detected
# UVM_WARNING ../agents/uart_agent/uart_monitor.svh(95) @ 1717650: uvm_test_top.m_env.m_rx_uart_agent.m_uart_monitor [startBitErrorDetect] False start bit detected
# UVM_INFO ../uvm_tb/env/uart_rx_scoreboard.svh(93) @ 1720505: uvm_test_top.m_env.rx_sb [monitor_uart] RX Data error detected: PE:1 FE:1 LCR:2a
# UVM_ERROR ../uvm_tb/env/uart_rx_scoreboard.svh(112) @ 1720505: uvm_test_top.m_env.rx_sb [monitor_uart] Error in observed UART RX data expected:3d actual:30 LCR:2a
# UVM_INFO ../uvm_tb/env/uart_rx_scoreboard.svh(93) @ 1720555: uvm_test_top.m_env.rx_sb [monitor_uart] RX Data error detected: PE:0 FE:1 LCR:2a
# UVM_ERROR ../uvm_tb/env/uart_rx_scoreboard.svh(112) @ 1720555: uvm_test_top.m_env.rx_sb [monitor_uart] Error in observed UART RX data expected:6c actual:b LCR:2a
# UVM_INFO ../uvm_tb/env/uart_rx_scoreboard.svh(93) @ 1720605: uvm_test_top.m_env.rx_sb [monitor_uart] RX Data error detected: PE:1 FE:0 LCR:2a
# UVM_ERROR ../uvm_tb/env/uart_rx_scoreboard.svh(112) @ 1720605: uvm_test_top.m_env.rx_sb [monitor_uart] Error in observed UART RX data expected:71 actual:55 LCR:2a
# UVM_INFO ../uvm_tb/env/uart_rx_scoreboard.svh(93) @ 1720655: uvm_test_top.m_env.rx_sb [monitor_uart] RX Data error detected: PE:0 FE:1 LCR:2a
# UVM_ERROR ../uvm_tb/env/uart_rx_scoreboard.svh(112) @ 1720655: uvm_test_top.m_env.rx_sb [monitor_uart] Error in observed UART RX data expected:75 actual:37 LCR:2a
# UVM_WARNING ../agents/uart_agent/uart_monitor.svh(95) @ 1721750: uvm_test_top.m_env.m_rx_uart_agent.m_uart_monitor [startBitErrorDetect] False start bit detected
# UVM_WARNING ../agents/uart_agent/uart_monitor.svh(95) @ 1728970: uvm_test_top.m_env.m_rx_uart_agent.m_uart_monitor [startBitErrorDetect] False start bit detected
# UVM_INFO ../uvm_tb/env/uart_rx_scoreboard.svh(93) @ 1734225: uvm_test_top.m_env.rx_sb [monitor_uart] RX Data error detected: PE:1 FE:1 LCR:2a
# UVM_ERROR ../uvm_tb/env/uart_rx_scoreboard.svh(112) @ 1734225: uvm_test_top.m_env.rx_sb [monitor_uart] Error in observed UART RX data expected:3b actual:6c LCR:2a
# UVM_ERROR ../uvm_tb/env/uart_rx_scoreboard.svh(112) @ 1734275: uvm_test_top.m_env.rx_sb [monitor_uart] Error in observed UART RX data expected:1f actual:6e LCR:2a
# UVM_INFO ../uvm_tb/env/uart_rx_scoreboard.svh(93) @ 1734325: uvm_test_top.m_env.rx_sb [monitor_uart] RX Data error detected: PE:1 FE:1 LCR:2a
# UVM_ERROR ../uvm_tb/env/uart_rx_scoreboard.svh(112) @ 1734325: uvm_test_top.m_env.rx_sb [monitor_uart] Error in observed UART RX data expected:5f actual:59 LCR:2a
# UVM_INFO ../uvm_tb/env/uart_rx_scoreboard.svh(93) @ 1734375: uvm_test_top.m_env.rx_sb [monitor_uart] RX Data error detected: PE:0 FE:1 LCR:2a
# UVM_ERROR ../uvm_tb/env/uart_rx_scoreboard.svh(112) @ 1734375: uvm_test_top.m_env.rx_sb [monitor_uart] Error in observed UART RX data expected:f actual:64 LCR:2a
# UVM_ERROR ../uvm_tb/env/uart_rx_scoreboard.svh(133) @ 1734425: uvm_test_top.m_env.rx_sb [monitor_uart] Error in LSR FE bit - expected:0 actual:0
# UVM_INFO ../uvm_tb/env/uart_rx_scoreboard.svh(93) @ 1737695: uvm_test_top.m_env.rx_sb [monitor_uart] RX Data error detected: PE:0 FE:1 LCR:2a
# UVM_ERROR ../uvm_tb/env/uart_rx_scoreboard.svh(112) @ 1737695: uvm_test_top.m_env.rx_sb [monitor_uart] Error in observed UART RX data expected:1f actual:22 LCR:2a
# UVM_ERROR ../uvm_tb/env/uart_rx_scoreboard.svh(133) @ 1737745: uvm_test_top.m_env.rx_sb [monitor_uart] Error in LSR FE bit - expected:0 actual:0
# UVM_WARNING ../agents/uart_agent/uart_monitor.svh(95) @ 1738790: uvm_test_top.m_env.m_rx_uart_agent.m_uart_monitor [startBitErrorDetect] False start bit detected
# UVM_INFO ../uvm_tb/env/uart_rx_scoreboard.svh(93) @ 1741155: uvm_test_top.m_env.rx_sb [monitor_uart] RX Data error detected: PE:1 FE:1 LCR:2a
# UVM_ERROR ../uvm_tb/env/uart_rx_scoreboard.svh(112) @ 1741155: uvm_test_top.m_env.rx_sb [monitor_uart] Error in observed UART RX data expected:3a actual:74 LCR:2a
# UVM_ERROR ../uvm_tb/env/uart_rx_scoreboard.svh(129) @ 1741205: uvm_test_top.m_env.rx_sb [monitor_uart] Error in LSR PE bit - expected:1 actual:0
# UVM_ERROR ../uvm_tb/env/uart_rx_scoreboard.svh(133) @ 1741205: uvm_test_top.m_env.rx_sb [monitor_uart] Error in LSR FE bit - expected:1 actual:0
# UVM_ERROR ../uvm_tb/env/uart_rx_scoreboard.svh(118) @ 1760835: uvm_test_top.m_env.rx_sb [monitor_uart] Error in observed UART RX data expected:7f actual:93 LCR:2b
# UVM_ERROR ../uvm_tb/env/uart_rx_scoreboard.svh(118) @ 1760885: uvm_test_top.m_env.rx_sb [monitor_uart] Error in observed UART RX data expected:93 actual:5c LCR:2b
# UVM_ERROR ../uvm_tb/env/uart_rx_scoreboard.svh(118) @ 1760935: uvm_test_top.m_env.rx_sb [monitor_uart] Error in observed UART RX data expected:5c actual:1a LCR:2b
# UVM_ERROR ../uvm_tb/env/uart_rx_scoreboard.svh(118) @ 1760985: uvm_test_top.m_env.rx_sb [monitor_uart] Error in observed UART RX data expected:1a actual:fc LCR:2b
# UVM_ERROR ../uvm_tb/env/uart_rx_scoreboard.svh(118) @ 1803125: uvm_test_top.m_env.rx_sb [monitor_uart] Error in observed UART RX data expected:fc actual:b4 LCR:2b
# UVM_ERROR ../uvm_tb/env/uart_rx_scoreboard.svh(118) @ 1803225: uvm_test_top.m_env.rx_sb [monitor_uart] Error in observed UART RX data expected:b4 actual:25 LCR:2b
# UVM_ERROR ../uvm_tb/env/uart_rx_scoreboard.svh(118) @ 1803325: uvm_test_top.m_env.rx_sb [monitor_uart] Error in observed UART RX data expected:25 actual:1c LCR:2b
# UVM_ERROR ../uvm_tb/env/uart_rx_scoreboard.svh(100) @ 1821425: uvm_test_top.m_env.rx_sb [monitor_uart] Error in observed UART RX data expected:1c actual:13 LCR:2c
# UVM_ERROR ../uvm_tb/env/uart_rx_scoreboard.svh(100) @ 1821475: uvm_test_top.m_env.rx_sb [monitor_uart] Error in observed UART RX data expected:13 actual:e LCR:2c
# UVM_ERROR ../uvm_tb/env/uart_rx_scoreboard.svh(100) @ 1821525: uvm_test_top.m_env.rx_sb [monitor_uart] Error in observed UART RX data expected:e actual:1d LCR:2c
# UVM_ERROR ../uvm_tb/env/uart_rx_scoreboard.svh(100) @ 1821575: uvm_test_top.m_env.rx_sb [monitor_uart] Error in observed UART RX data expected:1d actual:1b LCR:2c
# UVM_ERROR ../uvm_tb/env/uart_rx_scoreboard.svh(100) @ 1832865: uvm_test_top.m_env.rx_sb [monitor_uart] Error in observed UART RX data expected:1b actual:1 LCR:2c
# UVM_ERROR ../uvm_tb/env/uart_rx_scoreboard.svh(100) @ 1832915: uvm_test_top.m_env.rx_sb [monitor_uart] Error in observed UART RX data expected:1 actual:18 LCR:2c
# UVM_ERROR ../uvm_tb/env/uart_rx_scoreboard.svh(100) @ 1832965: uvm_test_top.m_env.rx_sb [monitor_uart] Error in observed UART RX data expected:18 actual:10 LCR:2c
# UVM_ERROR ../uvm_tb/env/uart_rx_scoreboard.svh(100) @ 1833015: uvm_test_top.m_env.rx_sb [monitor_uart] Error in observed UART RX data expected:10 actual:18 LCR:2c
# UVM_ERROR ../uvm_tb/env/uart_rx_scoreboard.svh(106) @ 1879475: uvm_test_top.m_env.rx_sb [monitor_uart] Error in observed UART RX data expected:18 actual:29 LCR:2d
# UVM_ERROR ../uvm_tb/env/uart_rx_scoreboard.svh(106) @ 1879575: uvm_test_top.m_env.rx_sb [monitor_uart] Error in observed UART RX data expected:29 actual:2f LCR:2d
# UVM_ERROR ../uvm_tb/env/uart_rx_scoreboard.svh(106) @ 1879625: uvm_test_top.m_env.rx_sb [monitor_uart] Error in observed UART RX data expected:2f actual:1d LCR:2d
# UVM_ERROR ../uvm_tb/env/uart_rx_scoreboard.svh(106) @ 1882805: uvm_test_top.m_env.rx_sb [monitor_uart] Error in observed UART RX data expected:1d actual:1 LCR:2d
# UVM_ERROR ../uvm_tb/env/uart_rx_scoreboard.svh(106) @ 1886125: uvm_test_top.m_env.rx_sb [monitor_uart] Error in observed UART RX data expected:1 actual:2e LCR:2d
# UVM_ERROR ../uvm_tb/env/uart_rx_scoreboard.svh(106) @ 1889305: uvm_test_top.m_env.rx_sb [monitor_uart] Error in observed UART RX data expected:2e actual:2b LCR:2d
# UVM_ERROR ../uvm_tb/env/uart_rx_scoreboard.svh(106) @ 1892765: uvm_test_top.m_env.rx_sb [monitor_uart] Error in observed UART RX data expected:2b actual:3c LCR:2d
# UVM_ERROR ../uvm_tb/env/uart_rx_scoreboard.svh(112) @ 1907915: uvm_test_top.m_env.rx_sb [monitor_uart] Error in observed UART RX data expected:3c actual:2b LCR:2e
# UVM_ERROR ../uvm_tb/env/uart_rx_scoreboard.svh(112) @ 1907965: uvm_test_top.m_env.rx_sb [monitor_uart] Error in observed UART RX data expected:2b actual:5a LCR:2e
# UVM_ERROR ../uvm_tb/env/uart_rx_scoreboard.svh(112) @ 1908015: uvm_test_top.m_env.rx_sb [monitor_uart] Error in observed UART RX data expected:5a actual:5c LCR:2e
# UVM_ERROR ../uvm_tb/env/uart_rx_scoreboard.svh(112) @ 1908065: uvm_test_top.m_env.rx_sb [monitor_uart] Error in observed UART RX data expected:5c actual:78 LCR:2e
# UVM_ERROR ../uvm_tb/env/uart_rx_scoreboard.svh(112) @ 1923215: uvm_test_top.m_env.rx_sb [monitor_uart] Error in observed UART RX data expected:78 actual:5a LCR:2e
# UVM_ERROR ../uvm_tb/env/uart_rx_scoreboard.svh(112) @ 1923265: uvm_test_top.m_env.rx_sb [monitor_uart] Error in observed UART RX data expected:5a actual:45 LCR:2e
# UVM_ERROR ../uvm_tb/env/uart_rx_scoreboard.svh(112) @ 1923315: uvm_test_top.m_env.rx_sb [monitor_uart] Error in observed UART RX data expected:45 actual:2b LCR:2e
# UVM_ERROR ../uvm_tb/env/uart_rx_scoreboard.svh(112) @ 1923365: uvm_test_top.m_env.rx_sb [monitor_uart] Error in observed UART RX data expected:2b actual:29 LCR:2e
# UVM_ERROR ../uvm_tb/env/uart_rx_scoreboard.svh(112) @ 1927105: uvm_test_top.m_env.rx_sb [monitor_uart] Error in observed UART RX data expected:29 actual:11 LCR:2e
# UVM_ERROR ../uvm_tb/env/uart_rx_scoreboard.svh(112) @ 1930845: uvm_test_top.m_env.rx_sb [monitor_uart] Error in observed UART RX data expected:11 actual:30 LCR:2e
# UVM_ERROR ../uvm_tb/env/uart_rx_scoreboard.svh(118) @ 1947495: uvm_test_top.m_env.rx_sb [monitor_uart] Error in observed UART RX data expected:30 actual:da LCR:2f
# UVM_ERROR ../uvm_tb/env/uart_rx_scoreboard.svh(118) @ 1947545: uvm_test_top.m_env.rx_sb [monitor_uart] Error in observed UART RX data expected:da actual:a4 LCR:2f
# UVM_ERROR ../uvm_tb/env/uart_rx_scoreboard.svh(118) @ 1947595: uvm_test_top.m_env.rx_sb [monitor_uart] Error in observed UART RX data expected:a4 actual:5c LCR:2f
# UVM_ERROR ../uvm_tb/env/uart_rx_scoreboard.svh(118) @ 1947645: uvm_test_top.m_env.rx_sb [monitor_uart] Error in observed UART RX data expected:5c actual:86 LCR:2f
# UVM_INFO ../uvm_tb/env/uart_rx_scoreboard.svh(93) @ 1963515: uvm_test_top.m_env.rx_sb [monitor_uart] RX Data error detected: PE:1 FE:0 LCR:2f
# UVM_ERROR ../uvm_tb/env/uart_rx_scoreboard.svh(118) @ 1963515: uvm_test_top.m_env.rx_sb [monitor_uart] Error in observed UART RX data expected:86 actual:44 LCR:2f
# UVM_ERROR ../uvm_tb/env/uart_rx_scoreboard.svh(118) @ 1963565: uvm_test_top.m_env.rx_sb [monitor_uart] Error in observed UART RX data expected:44 actual:9a LCR:2f
# UVM_ERROR ../uvm_tb/env/uart_rx_scoreboard.svh(118) @ 1963615: uvm_test_top.m_env.rx_sb [monitor_uart] Error in observed UART RX data expected:9a actual:d5 LCR:2f
# UVM_ERROR ../uvm_tb/env/uart_rx_scoreboard.svh(118) @ 1963665: uvm_test_top.m_env.rx_sb [monitor_uart] Error in observed UART RX data expected:d5 actual:dc LCR:2f
# UVM_ERROR ../uvm_tb/env/uart_rx_scoreboard.svh(118) @ 1967545: uvm_test_top.m_env.rx_sb [monitor_uart] Error in observed UART RX data expected:dc actual:ed LCR:2f
# UVM_ERROR ../uvm_tb/env/uart_rx_scoreboard.svh(118) @ 1971705: uvm_test_top.m_env.rx_sb [monitor_uart] Error in observed UART RX data expected:ed actual:e4 LCR:2f
# UVM_ERROR ../uvm_tb/env/uart_rx_scoreboard.svh(118) @ 1975725: uvm_test_top.m_env.rx_sb [monitor_uart] Error in observed UART RX data expected:e4 actual:f4 LCR:2f
# UVM_ERROR ../uvm_tb/env/uart_rx_scoreboard.svh(118) @ 1979605: uvm_test_top.m_env.rx_sb [monitor_uart] Error in observed UART RX data expected:f4 actual:32 LCR:2f
# UVM_ERROR ../uvm_tb/env/uart_rx_scoreboard.svh(100) @ 1999675: uvm_test_top.m_env.rx_sb [monitor_uart] Error in observed UART RX data expected:12 actual:18 LCR:30
# UVM_ERROR ../uvm_tb/env/uart_rx_scoreboard.svh(100) @ 1999725: uvm_test_top.m_env.rx_sb [monitor_uart] Error in observed UART RX data expected:18 actual:1d LCR:30
# UVM_ERROR ../uvm_tb/env/uart_rx_scoreboard.svh(100) @ 1999775: uvm_test_top.m_env.rx_sb [monitor_uart] Error in observed UART RX data expected:1d actual:1 LCR:30
# UVM_ERROR ../uvm_tb/env/uart_rx_scoreboard.svh(100) @ 2002025: uvm_test_top.m_env.rx_sb [monitor_uart] Error in observed UART RX data expected:1 actual:1b LCR:30
# UVM_ERROR ../uvm_tb/env/uart_rx_scoreboard.svh(100) @ 2004365: uvm_test_top.m_env.rx_sb [monitor_uart] Error in observed UART RX data expected:1b actual:13 LCR:30
# UVM_ERROR ../uvm_tb/env/uart_rx_scoreboard.svh(100) @ 2009465: uvm_test_top.m_env.rx_sb [monitor_uart] Error in observed UART RX data expected:13 actual:16 LCR:30
# UVM_ERROR ../uvm_tb/env/uart_rx_scoreboard.svh(106) @ 2020495: uvm_test_top.m_env.rx_sb [monitor_uart] Error in observed UART RX data expected:16 actual:c LCR:31
# UVM_ERROR ../uvm_tb/env/uart_rx_scoreboard.svh(106) @ 2020545: uvm_test_top.m_env.rx_sb [monitor_uart] Error in observed UART RX data expected:c actual:1 LCR:31
# UVM_ERROR ../uvm_tb/env/uart_rx_scoreboard.svh(106) @ 2020595: uvm_test_top.m_env.rx_sb [monitor_uart] Error in observed UART RX data expected:1 actual:27 LCR:31
# UVM_ERROR ../uvm_tb/env/uart_rx_scoreboard.svh(106) @ 2020645: uvm_test_top.m_env.rx_sb [monitor_uart] Error in observed UART RX data expected:27 actual:3b LCR:31
# UVM_ERROR ../uvm_tb/env/uart_rx_scoreboard.svh(106) @ 2031555: uvm_test_top.m_env.rx_sb [monitor_uart] Error in observed UART RX data expected:3b actual:18 LCR:31
# UVM_ERROR ../uvm_tb/env/uart_rx_scoreboard.svh(106) @ 2031605: uvm_test_top.m_env.rx_sb [monitor_uart] Error in observed UART RX data expected:18 actual:34 LCR:31
# UVM_ERROR ../uvm_tb/env/uart_rx_scoreboard.svh(106) @ 2031655: uvm_test_top.m_env.rx_sb [monitor_uart] Error in observed UART RX data expected:34 actual:25 LCR:31
