sim/word_format_poll.log
# vsim uart_tb "+UVM_TESTNAME=word_format_poll_test" -do "coverage save word_format_poll.ucdb -onexit;run -all" -c -l word_format_poll.log -coverage -voptargs="+acc" 
# Start time: 15:42:11 on Aug 21,2023
# ** Note: (vsim-3812) Design is being optimized...
# ** Note: (vopt-143) Recognized 1 FSM in module "uart_rx(fast)".
# ** Note: (vopt-143) Recognized 1 FSM in module "uart_tx(fast)".
# //  Questa Sim-64
# //  Version 10.6c win64 Jul 26 2017
# //
# //  Copyright 1991-2017 Mentor Graphics Corporation
# //  All Rights Reserved.
# //
# //  QuestaSim and its associated documentation contain trade
# //  secrets and commercial or financial information that are the property of
# //  Mentor Graphics Corporation and are privileged, confidential,
# //  and exempt from disclosure under the Freedom of Information Act,
# //  5 U.S.C. Section 552. Furthermore, this information
# //  is prohibited from disclosure under the Trade Secrets Act,
# //  18 U.S.C. Section 1905.
# //
# Loading sv_std.std
# Loading work.apb_if(fast)
# Loading work.modem_if(fast)
# Loading mtiUvm.uvm_pkg
# Loading work.uart_agent_pkg(fast)
# Loading work.uart_seq_pkg(fast)
# Loading work.uart_reg_pkg(fast)
# Loading work.modem_agent_pkg(fast)
# Loading work.apb_agent_pkg(fast)
# Loading work.uart_env_pkg(fast)
# Loading work.host_if_seq_pkg(fast)
# Loading work.uart_vseq_pkg(fast)
# Loading work.uart_test_pkg(fast)
# Loading work.serial_if(fast)
# Loading work.interrupt_if(fast)
# Loading work.uart_tb(fast)
# Loading work.apb_if(fast)
# Loading work.serial_if(fast)
# Loading work.modem_if(fast)
# Loading work.interrupt_if(fast)
# Loading work.uart_16550(fast)
# Loading work.uart_register_file(fast)
# Loading work.uart_tx(fast)
# Loading work.uart_tx_fifo(fast)
# Loading work.uart_rx(fast)
# Loading work.uart_rx_fifo(fast)
# Loading work.apb_monitor(fast)
# Loading mtiUvm.questa_uvm_pkg(fast)
# Loading D:/icTools/qsim10.6setupFiles/uvm-1.1d\win64\uvm_dpi.dll
# coverage save word_format_poll.ucdb -onexit
# run -all
# ----------------------------------------------------------------
# UVM-1.1d
# (C) 2007-2013 Mentor Graphics Corporation
# (C) 2007-2013 Cadence Design Systems, Inc.
# (C) 2006-2013 Synopsys, Inc.
# (C) 2011-2013 Cypress Semiconductor Corp.
# ----------------------------------------------------------------
# 
#   ***********       IMPORTANT RELEASE NOTES         ************
# 
#   You are using a version of the UVM library that has been compiled
#   with `UVM_NO_DEPRECATED undefined.
#   See http://www.eda.org/svdb/view.php?id=3313 for more details.
# 
#   You are using a version of the UVM library that has been compiled
#   with `UVM_OBJECT_MUST_HAVE_CONSTRUCTOR undefined.
#   See http://www.eda.org/svdb/view.php?id=3770 for more details.
# 
#       (Specify +UVM_NO_RELNOTES to turn off this notice)
# 
# UVM_INFO verilog_src/questa_uvm_pkg-1.2/src/questa_uvm_pkg.sv(215) @ 0: reporter [Questa UVM] QUESTA_UVM-1.2.3
# UVM_INFO verilog_src/questa_uvm_pkg-1.2/src/questa_uvm_pkg.sv(217) @ 0: reporter [Questa UVM]  questa_uvm::init(+struct)
# UVM_INFO @ 0: reporter [RNTST] Running test word_format_poll_test...
# UVM_INFO ../uvm_tb/env/uart_rx_scoreboard.svh(93) @ 5065: uvm_test_top.m_env.rx_sb [monitor_uart] RX Data error detected: PE:0 FE:1 LCR:0
# UVM_WARNING ../agents/uart_agent/uart_monitor.svh(95) @ 7060: uvm_test_top.m_env.m_rx_uart_agent.m_uart_monitor [startBitErrorDetect] False start bit detected
# ** Error: (vsim-8567) Illegal cross bin was hit. The bin counter for the bin 'lsr_read_cg.FIFO_ERROR_STATUS.missing_fifo_error' is 1.
#    Time: 7665 ns  Iteration: 1  Region: /uvm_pkg::uvm_task_phase::execute
# UVM_INFO ../uvm_tb/env/uart_rx_scoreboard.svh(93) @ 7715: uvm_test_top.m_env.rx_sb [monitor_uart] RX Data error detected: PE:0 FE:1 LCR:1
# UVM_INFO ../uvm_tb/env/uart_rx_scoreboard.svh(93) @ 10485: uvm_test_top.m_env.rx_sb [monitor_uart] RX Data error detected: PE:0 FE:1 LCR:1
# ** Error: (vsim-8567) Illegal cross bin was hit. The bin counter for the bin 'lsr_read_cg.FIFO_ERROR_STATUS.missing_fifo_error' is 3.
#    Time: 15315 ns  Iteration: 1  Region: /uvm_pkg::uvm_task_phase::execute
# UVM_INFO ../uvm_tb/env/uart_rx_scoreboard.svh(93) @ 23655: uvm_test_top.m_env.rx_sb [monitor_uart] RX Data error detected: PE:0 FE:1 LCR:3
# ** Error: (vsim-8567) Illegal cross bin was hit. The bin counter for the bin 'lsr_read_cg.FIFO_ERROR_STATUS.missing_fifo_error' is 4.
#    Time: 23705 ns  Iteration: 1  Region: /uvm_pkg::uvm_task_phase::execute
# UVM_ERROR ../uvm_tb/env/uart_rx_scoreboard.svh(118) @ 23905: uvm_test_top.m_env.rx_sb [monitor_uart] Error in observed UART RX data expected:2c actual:4c LCR:3
# UVM_WARNING ../agents/uart_agent/uart_monitor.svh(95) @ 27610: uvm_test_top.m_env.m_rx_uart_agent.m_uart_monitor [startBitErrorDetect] False start bit detected
# UVM_INFO ../uvm_tb/env/uart_rx_scoreboard.svh(93) @ 32645: uvm_test_top.m_env.rx_sb [monitor_uart] RX Data error detected: PE:0 FE:1 LCR:4
# ** Error: (vsim-8567) Illegal cross bin was hit. The bin counter for the bin 'lsr_read_cg.FIFO_ERROR_STATUS.missing_fifo_error' is 5.
#    Time: 32695 ns  Iteration: 1  Region: /uvm_pkg::uvm_task_phase::execute
# UVM_INFO ../uvm_tb/env/uart_rx_scoreboard.svh(93) @ 32895: uvm_test_top.m_env.rx_sb [monitor_uart] RX Data error detected: PE:0 FE:1 LCR:4
# ** Error: (vsim-8567) Illegal cross bin was hit. The bin counter for the bin 'lsr_read_cg.FIFO_ERROR_STATUS.missing_fifo_error' is 6.
#    Time: 39505 ns  Iteration: 1  Region: /uvm_pkg::uvm_task_phase::execute
# UVM_INFO ../uvm_tb/env/uart_rx_scoreboard.svh(93) @ 39805: uvm_test_top.m_env.rx_sb [monitor_uart] RX Data error detected: PE:0 FE:1 LCR:5
# ** Error: (vsim-8567) Illegal cross bin was hit. The bin counter for the bin 'lsr_read_cg.FIFO_ERROR_STATUS.missing_fifo_error' is 7.
#    Time: 47315 ns  Iteration: 1  Region: /uvm_pkg::uvm_task_phase::execute
# UVM_INFO ../uvm_tb/env/uart_rx_scoreboard.svh(93) @ 47615: uvm_test_top.m_env.rx_sb [monitor_uart] RX Data error detected: PE:0 FE:1 LCR:6
# UVM_WARNING ../agents/uart_agent/uart_monitor.svh(95) @ 51540: uvm_test_top.m_env.m_rx_uart_agent.m_uart_monitor [startBitErrorDetect] False start bit detected
# UVM_ERROR ../uvm_tb/env/uart_rx_scoreboard.svh(133) @ 55305: uvm_test_top.m_env.rx_sb [monitor_uart] Error in LSR FE bit - expected:0 actual:0
# UVM_WARNING ../agents/uart_agent/uart_monitor.svh(95) @ 64090: uvm_test_top.m_env.m_rx_uart_agent.m_uart_monitor [startBitErrorDetect] False start bit detected
# UVM_INFO ../uvm_tb/env/uart_rx_scoreboard.svh(93) @ 64745: uvm_test_top.m_env.rx_sb [monitor_uart] RX Data error detected: PE:0 FE:1 LCR:8
# UVM_ERROR ../uvm_tb/env/uart_rx_scoreboard.svh(133) @ 64795: uvm_test_top.m_env.rx_sb [monitor_uart] Error in LSR FE bit - expected:0 actual:0
# UVM_INFO ../uvm_tb/env/uart_rx_scoreboard.svh(93) @ 64995: uvm_test_top.m_env.rx_sb [monitor_uart] RX Data error detected: PE:0 FE:1 LCR:8
# ** Error: (vsim-8567) Illegal cross bin was hit. The bin counter for the bin 'lsr_read_cg.FIFO_ERROR_STATUS.missing_fifo_error' is 8.
#    Time: 72285 ns  Iteration: 1  Region: /uvm_pkg::uvm_task_phase::execute
# UVM_INFO ../uvm_tb/env/uart_rx_scoreboard.svh(93) @ 72335: uvm_test_top.m_env.rx_sb [monitor_uart] RX Data error detected: PE:0 FE:1 LCR:9
# UVM_INFO ../uvm_tb/env/uart_rx_scoreboard.svh(93) @ 72585: uvm_test_top.m_env.rx_sb [monitor_uart] RX Data error detected: PE:0 FE:1 LCR:9
# UVM_WARNING ../agents/uart_agent/uart_monitor.svh(95) @ 75930: uvm_test_top.m_env.m_rx_uart_agent.m_uart_monitor [startBitErrorDetect] False start bit detected
# ** Error: (vsim-8567) Illegal cross bin was hit. The bin counter for the bin 'lsr_read_cg.FIFO_ERROR_STATUS.missing_fifo_error' is 10.
#    Time: 80435 ns  Iteration: 1  Region: /uvm_pkg::uvm_task_phase::execute
# UVM_INFO ../uvm_tb/env/uart_rx_scoreboard.svh(93) @ 80735: uvm_test_top.m_env.rx_sb [monitor_uart] RX Data error detected: PE:0 FE:1 LCR:a
# ** Error: (vsim-8567) Illegal cross bin was hit. The bin counter for the bin 'lsr_read_cg.FIFO_ERROR_STATUS.missing_fifo_error' is 11.
#    Time: 89585 ns  Iteration: 1  Region: /uvm_pkg::uvm_task_phase::execute
# UVM_INFO ../uvm_tb/env/uart_rx_scoreboard.svh(93) @ 89635: uvm_test_top.m_env.rx_sb [monitor_uart] RX Data error detected: PE:0 FE:1 LCR:b
# UVM_INFO ../uvm_tb/env/uart_rx_scoreboard.svh(93) @ 89885: uvm_test_top.m_env.rx_sb [monitor_uart] RX Data error detected: PE:1 FE:0 LCR:b
# UVM_WARNING ../agents/uart_agent/uart_monitor.svh(95) @ 96950: uvm_test_top.m_env.m_rx_uart_agent.m_uart_monitor [startBitErrorDetect] False start bit detected
# ** Error: (vsim-8567) Illegal cross bin was hit. The bin counter for the bin 'lsr_read_cg.FIFO_ERROR_STATUS.missing_fifo_error' is 13.
#    Time: 99455 ns  Iteration: 1  Region: /uvm_pkg::uvm_task_phase::execute
# UVM_INFO ../uvm_tb/env/uart_rx_scoreboard.svh(93) @ 99755: uvm_test_top.m_env.rx_sb [monitor_uart] RX Data error detected: PE:1 FE:1 LCR:c
# ** Error: (vsim-8567) Illegal cross bin was hit. The bin counter for the bin 'lsr_read_cg.FIFO_ERROR_STATUS.missing_fifo_error' is 14.
#    Time: 107065 ns  Iteration: 1  Region: /uvm_pkg::uvm_task_phase::execute
# UVM_ERROR ../uvm_tb/env/uart_rx_scoreboard.svh(129) @ 107065: uvm_test_top.m_env.rx_sb [monitor_uart] Error in LSR PE bit - expected:1 actual:0
# UVM_INFO ../uvm_tb/env/uart_rx_scoreboard.svh(93) @ 107115: uvm_test_top.m_env.rx_sb [monitor_uart] RX Data error detected: PE:1 FE:1 LCR:d
# ** Error: (vsim-8567) Illegal cross bin was hit. The bin counter for the bin 'lsr_read_cg.FIFO_ERROR_STATUS.missing_fifo_error' is 15.
#    Time: 107165 ns  Iteration: 1  Region: /uvm_pkg::uvm_task_phase::execute
# UVM_INFO ../uvm_tb/env/uart_rx_scoreboard.svh(93) @ 107365: uvm_test_top.m_env.rx_sb [monitor_uart] RX Data error detected: PE:0 FE:1 LCR:d
# UVM_ERROR ../uvm_tb/env/uart_rx_scoreboard.svh(133) @ 115335: uvm_test_top.m_env.rx_sb [monitor_uart] Error in LSR FE bit - expected:0 actual:0
# UVM_INFO ../uvm_tb/env/uart_rx_scoreboard.svh(93) @ 115385: uvm_test_top.m_env.rx_sb [monitor_uart] RX Data error detected: PE:1 FE:0 LCR:e
# ** Error: (vsim-8567) Illegal cross bin was hit. The bin counter for the bin 'lsr_read_cg.FIFO_ERROR_STATUS.missing_fifo_error' is 16.
#    Time: 115435 ns  Iteration: 1  Region: /uvm_pkg::uvm_task_phase::execute
# UVM_INFO ../uvm_tb/env/uart_rx_scoreboard.svh(93) @ 115635: uvm_test_top.m_env.rx_sb [monitor_uart] RX Data error detected: PE:1 FE:1 LCR:e
# ** Error: (vsim-8567) Illegal cross bin was hit. The bin counter for the bin 'lsr_read_cg.FIFO_ERROR_STATUS.missing_fifo_error' is 17.
#    Time: 124665 ns  Iteration: 1  Region: /uvm_pkg::uvm_task_phase::execute
# UVM_INFO ../uvm_tb/env/uart_rx_scoreboard.svh(93) @ 124715: uvm_test_top.m_env.rx_sb [monitor_uart] RX Data error detected: PE:1 FE:1 LCR:f
# ** Error: (vsim-8567) Illegal cross bin was hit. The bin counter for the bin 'lsr_read_cg.FIFO_ERROR_STATUS.missing_fifo_error' is 18.
#    Time: 124765 ns  Iteration: 1  Region: /uvm_pkg::uvm_task_phase::execute
# UVM_ERROR ../uvm_tb/env/uart_rx_scoreboard.svh(133) @ 124765: uvm_test_top.m_env.rx_sb [monitor_uart] Error in LSR FE bit - expected:1 actual:0
# UVM_INFO ../uvm_tb/env/uart_rx_scoreboard.svh(93) @ 124965: uvm_test_top.m_env.rx_sb [monitor_uart] RX Data error detected: PE:1 FE:0 LCR:f
# ** Error: (vsim-8567) Illegal cross bin was hit. The bin counter for the bin 'lsr_read_cg.FIFO_ERROR_STATUS.missing_fifo_error' is 19.
#    Time: 134475 ns  Iteration: 1  Region: /uvm_pkg::uvm_task_phase::execute
# UVM_INFO ../uvm_tb/env/uart_rx_scoreboard.svh(93) @ 134525: uvm_test_top.m_env.rx_sb [monitor_uart] RX Data error detected: PE:0 FE:1 LCR:10
# ** Error: (vsim-8567) Illegal cross bin was hit. The bin counter for the bin 'lsr_read_cg.FIFO_ERROR_STATUS.missing_fifo_error' is 20.
#    Time: 134575 ns  Iteration: 1  Region: /uvm_pkg::uvm_task_phase::execute
# UVM_INFO ../uvm_tb/env/uart_rx_scoreboard.svh(93) @ 141575: uvm_test_top.m_env.rx_sb [monitor_uart] RX Data error detected: PE:1 FE:1 LCR:11
# ** Error: (vsim-8567) Illegal cross bin was hit. The bin counter for the bin 'lsr_read_cg.FIFO_ERROR_STATUS.missing_fifo_error' is 21.
#    Time: 141625 ns  Iteration: 1  Region: /uvm_pkg::uvm_task_phase::execute
# UVM_INFO ../uvm_tb/env/uart_rx_scoreboard.svh(93) @ 141825: uvm_test_top.m_env.rx_sb [monitor_uart] RX Data error detected: PE:1 FE:0 LCR:11
# UVM_ERROR ../uvm_tb/env/uart_rx_scoreboard.svh(106) @ 141825: uvm_test_top.m_env.rx_sb [monitor_uart] Error in observed UART RX data expected:d actual:15 LCR:11
# UVM_WARNING ../agents/uart_agent/uart_monitor.svh(95) @ 146470: uvm_test_top.m_env.m_rx_uart_agent.m_uart_monitor [startBitErrorDetect] False start bit detected
# ** Error: (vsim-8567) Illegal cross bin was hit. The bin counter for the bin 'lsr_read_cg.FIFO_ERROR_STATUS.missing_fifo_error' is 22.
#    Time: 148975 ns  Iteration: 1  Region: /uvm_pkg::uvm_task_phase::execute
# UVM_ERROR ../uvm_tb/env/uart_rx_scoreboard.svh(133) @ 148975: uvm_test_top.m_env.rx_sb [monitor_uart] Error in LSR FE bit - expected:1 actual:1
# UVM_INFO ../uvm_tb/env/uart_rx_scoreboard.svh(93) @ 149025: uvm_test_top.m_env.rx_sb [monitor_uart] RX Data error detected: PE:1 FE:1 LCR:12
# UVM_INFO ../uvm_tb/env/uart_rx_scoreboard.svh(93) @ 149275: uvm_test_top.m_env.rx_sb [monitor_uart] RX Data error detected: PE:0 FE:1 LCR:12
# UVM_ERROR ../uvm_tb/env/uart_rx_scoreboard.svh(112) @ 149275: uvm_test_top.m_env.rx_sb [monitor_uart] Error in observed UART RX data expected:25 actual:12 LCR:12
# ** Error: (vsim-8567) Illegal cross bin was hit. The bin counter for the bin 'lsr_read_cg.FIFO_ERROR_STATUS.missing_fifo_error' is 24.
#    Time: 157645 ns  Iteration: 1  Region: /uvm_pkg::uvm_task_phase::execute
# UVM_ERROR ../uvm_tb/env/uart_rx_scoreboard.svh(129) @ 157645: uvm_test_top.m_env.rx_sb [monitor_uart] Error in LSR PE bit - expected:0 actual:1
# UVM_INFO ../uvm_tb/env/uart_rx_scoreboard.svh(93) @ 157695: uvm_test_top.m_env.rx_sb [monitor_uart] RX Data error detected: PE:0 FE:1 LCR:13
# UVM_ERROR ../uvm_tb/env/uart_rx_scoreboard.svh(118) @ 157695: uvm_test_top.m_env.rx_sb [monitor_uart] Error in observed UART RX data expected:12 actual:1a LCR:13
# UVM_ERROR ../uvm_tb/env/uart_rx_scoreboard.svh(129) @ 157745: uvm_test_top.m_env.rx_sb [monitor_uart] Error in LSR PE bit - expected:0 actual:1
# UVM_INFO ../uvm_tb/env/uart_rx_scoreboard.svh(93) @ 157945: uvm_test_top.m_env.rx_sb [monitor_uart] RX Data error detected: PE:1 FE:0 LCR:13
# UVM_ERROR ../uvm_tb/env/uart_rx_scoreboard.svh(118) @ 157945: uvm_test_top.m_env.rx_sb [monitor_uart] Error in observed UART RX data expected:10 actual:28 LCR:13
# UVM_ERROR ../uvm_tb/env/uart_rx_scoreboard.svh(129) @ 166835: uvm_test_top.m_env.rx_sb [monitor_uart] Error in LSR PE bit - expected:1 actual:0
# UVM_INFO ../uvm_tb/env/uart_rx_scoreboard.svh(93) @ 166885: uvm_test_top.m_env.rx_sb [monitor_uart] RX Data error detected: PE:1 FE:0 LCR:14
# ** Error: (vsim-8567) Illegal cross bin was hit. The bin counter for the bin 'lsr_read_cg.FIFO_ERROR_STATUS.missing_fifo_error' is 26.
#    Time: 166935 ns  Iteration: 1  Region: /uvm_pkg::uvm_task_phase::execute
# UVM_INFO ../uvm_tb/env/uart_rx_scoreboard.svh(93) @ 167135: uvm_test_top.m_env.rx_sb [monitor_uart] RX Data error detected: PE:1 FE:0 LCR:14
# UVM_WARNING ../agents/uart_agent/uart_monitor.svh(95) @ 167480: uvm_test_top.m_env.m_rx_uart_agent.m_uart_monitor [startBitErrorDetect] False start bit detected
# ** Error: (vsim-8567) Illegal cross bin was hit. The bin counter for the bin 'lsr_read_cg.FIFO_ERROR_STATUS.missing_fifo_error' is 27.
#    Time: 174025 ns  Iteration: 1  Region: /uvm_pkg::uvm_task_phase::execute
# UVM_INFO ../uvm_tb/env/uart_rx_scoreboard.svh(93) @ 174075: uvm_test_top.m_env.rx_sb [monitor_uart] RX Data error detected: PE:1 FE:1 LCR:15
# ** Error: (vsim-8567) Illegal cross bin was hit. The bin counter for the bin 'lsr_read_cg.FIFO_ERROR_STATUS.missing_fifo_error' is 28.
#    Time: 174125 ns  Iteration: 1  Region: /uvm_pkg::uvm_task_phase::execute
# UVM_INFO ../uvm_tb/env/uart_rx_scoreboard.svh(93) @ 174325: uvm_test_top.m_env.rx_sb [monitor_uart] RX Data error detected: PE:1 FE:0 LCR:15
# UVM_WARNING ../agents/uart_agent/uart_monitor.svh(95) @ 181290: uvm_test_top.m_env.m_rx_uart_agent.m_uart_monitor [startBitErrorDetect] False start bit detected
# ** Error: (vsim-8567) Illegal cross bin was hit. The bin counter for the bin 'lsr_read_cg.FIFO_ERROR_STATUS.missing_fifo_error' is 29.
#    Time: 181895 ns  Iteration: 1  Region: /uvm_pkg::uvm_task_phase::execute
# UVM_INFO ../uvm_tb/env/uart_rx_scoreboard.svh(93) @ 181945: uvm_test_top.m_env.rx_sb [monitor_uart] RX Data error detected: PE:0 FE:1 LCR:16
# UVM_ERROR ../uvm_tb/env/uart_rx_scoreboard.svh(133) @ 181995: uvm_test_top.m_env.rx_sb [monitor_uart] Error in LSR FE bit - expected:0 actual:0
# UVM_WARNING ../agents/uart_agent/uart_monitor.svh(95) @ 184780: uvm_test_top.m_env.m_rx_uart_agent.m_uart_monitor [startBitErrorDetect] False start bit detected
# UVM_INFO ../uvm_tb/env/uart_rx_scoreboard.svh(93) @ 190555: uvm_test_top.m_env.rx_sb [monitor_uart] RX Data error detected: PE:0 FE:1 LCR:17
# UVM_ERROR ../uvm_tb/env/uart_rx_scoreboard.svh(133) @ 190605: uvm_test_top.m_env.rx_sb [monitor_uart] Error in LSR FE bit - expected:0 actual:0
# UVM_INFO ../uvm_tb/env/uart_rx_scoreboard.svh(93) @ 190805: uvm_test_top.m_env.rx_sb [monitor_uart] RX Data error detected: PE:0 FE:1 LCR:17
# ** Error: (vsim-8567) Illegal cross bin was hit. The bin counter for the bin 'lsr_read_cg.FIFO_ERROR_STATUS.missing_fifo_error' is 30.
#    Time: 199955 ns  Iteration: 1  Region: /uvm_pkg::uvm_task_phase::execute
# UVM_INFO ../uvm_tb/env/uart_rx_scoreboard.svh(93) @ 200005: uvm_test_top.m_env.rx_sb [monitor_uart] RX Data error detected: PE:0 FE:1 LCR:18
# UVM_ERROR ../uvm_tb/env/uart_rx_scoreboard.svh(133) @ 200055: uvm_test_top.m_env.rx_sb [monitor_uart] Error in LSR FE bit - expected:0 actual:0
# UVM_INFO ../uvm_tb/env/uart_rx_scoreboard.svh(93) @ 200255: uvm_test_top.m_env.rx_sb [monitor_uart] RX Data error detected: PE:0 FE:1 LCR:18
# UVM_WARNING ../agents/uart_agent/uart_monitor.svh(95) @ 205540: uvm_test_top.m_env.m_rx_uart_agent.m_uart_monitor [startBitErrorDetect] False start bit detected
# ** Error: (vsim-8567) Illegal cross bin was hit. The bin counter for the bin 'lsr_read_cg.FIFO_ERROR_STATUS.missing_fifo_error' is 31.
#    Time: 207405 ns  Iteration: 1  Region: /uvm_pkg::uvm_task_phase::execute
# UVM_ERROR ../uvm_tb/env/uart_rx_scoreboard.svh(133) @ 207505: uvm_test_top.m_env.rx_sb [monitor_uart] Error in LSR FE bit - expected:0 actual:1
# UVM_ERROR ../uvm_tb/env/uart_rx_scoreboard.svh(106) @ 207705: uvm_test_top.m_env.rx_sb [monitor_uart] Error in observed UART RX data expected:35 actual:3d LCR:19
# ** Error: (vsim-8567) Illegal cross bin was hit. The bin counter for the bin 'lsr_read_cg.FIFO_ERROR_STATUS.missing_fifo_error' is 33.
#    Time: 215575 ns  Iteration: 1  Region: /uvm_pkg::uvm_task_phase::execute
# UVM_ERROR ../uvm_tb/env/uart_rx_scoreboard.svh(133) @ 215575: uvm_test_top.m_env.rx_sb [monitor_uart] Error in LSR FE bit - expected:0 actual:1
# UVM_INFO ../uvm_tb/env/uart_rx_scoreboard.svh(93) @ 215625: uvm_test_top.m_env.rx_sb [monitor_uart] RX Data error detected: PE:0 FE:1 LCR:1a
# UVM_ERROR ../uvm_tb/env/uart_rx_scoreboard.svh(112) @ 215625: uvm_test_top.m_env.rx_sb [monitor_uart] Error in observed UART RX data expected:16 actual:4d LCR:1a
# UVM_ERROR ../uvm_tb/env/uart_rx_scoreboard.svh(112) @ 215875: uvm_test_top.m_env.rx_sb [monitor_uart] Error in observed UART RX data expected:6e actual:77 LCR:1a
# UVM_ERROR ../uvm_tb/env/uart_rx_scoreboard.svh(118) @ 224895: uvm_test_top.m_env.rx_sb [monitor_uart] Error in observed UART RX data expected:21 actual:c8 LCR:1b
# ** Error: (vsim-8567) Illegal cross bin was hit. The bin counter for the bin 'lsr_read_cg.FIFO_ERROR_STATUS.missing_fifo_error' is 35.
#    Time: 224945 ns  Iteration: 1  Region: /uvm_pkg::uvm_task_phase::execute
# UVM_ERROR ../uvm_tb/env/uart_rx_scoreboard.svh(133) @ 224945: uvm_test_top.m_env.rx_sb [monitor_uart] Error in LSR FE bit - expected:0 actual:1
# UVM_ERROR ../uvm_tb/env/uart_rx_scoreboard.svh(118) @ 225145: uvm_test_top.m_env.rx_sb [monitor_uart] Error in observed UART RX data expected:8b actual:89 LCR:1b
# UVM_INFO ../uvm_tb/env/uart_rx_scoreboard.svh(93) @ 234665: uvm_test_top.m_env.rx_sb [monitor_uart] RX Data error detected: PE:0 FE:1 LCR:1c
# UVM_ERROR ../uvm_tb/env/uart_rx_scoreboard.svh(133) @ 234715: uvm_test_top.m_env.rx_sb [monitor_uart] Error in LSR FE bit - expected:0 actual:0
# UVM_INFO ../uvm_tb/env/uart_rx_scoreboard.svh(93) @ 234915: uvm_test_top.m_env.rx_sb [monitor_uart] RX Data error detected: PE:0 FE:1 LCR:1c
# UVM_ERROR ../uvm_tb/env/uart_rx_scoreboard.svh(100) @ 234915: uvm_test_top.m_env.rx_sb [monitor_uart] Error in observed UART RX data expected:1e actual:19 LCR:1c
# UVM_WARNING ../agents/uart_agent/uart_monitor.svh(95) @ 239980: uvm_test_top.m_env.m_rx_uart_agent.m_uart_monitor [startBitErrorDetect] False start bit detected
# UVM_ERROR ../uvm_tb/env/uart_rx_scoreboard.svh(133) @ 242485: uvm_test_top.m_env.rx_sb [monitor_uart] Error in LSR FE bit - expected:0 actual:0
# UVM_INFO ../uvm_tb/env/uart_rx_scoreboard.svh(93) @ 242535: uvm_test_top.m_env.rx_sb [monitor_uart] RX Data error detected: PE:0 FE:1 LCR:1d
# UVM_ERROR ../uvm_tb/env/uart_rx_scoreboard.svh(106) @ 242535: uvm_test_top.m_env.rx_sb [monitor_uart] Error in observed UART RX data expected:15 actual:d LCR:1d
# ** Error: (vsim-8567) Illegal cross bin was hit. The bin counter for the bin 'lsr_read_cg.FIFO_ERROR_STATUS.missing_fifo_error' is 36.
#    Time: 242585 ns  Iteration: 1  Region: /uvm_pkg::uvm_task_phase::execute
# UVM_ERROR ../uvm_tb/env/uart_rx_scoreboard.svh(106) @ 242785: uvm_test_top.m_env.rx_sb [monitor_uart] Error in observed UART RX data expected:11 actual:2c LCR:1d
# ** Error: (vsim-8567) Illegal cross bin was hit. The bin counter for the bin 'lsr_read_cg.FIFO_ERROR_STATUS.missing_fifo_error' is 37.
#    Time: 250735 ns  Iteration: 1  Region: /uvm_pkg::uvm_task_phase::execute
# UVM_ERROR ../uvm_tb/env/uart_rx_scoreboard.svh(133) @ 250735: uvm_test_top.m_env.rx_sb [monitor_uart] Error in LSR FE bit - expected:0 actual:1
# UVM_INFO ../uvm_tb/env/uart_rx_scoreboard.svh(93) @ 250785: uvm_test_top.m_env.rx_sb [monitor_uart] RX Data error detected: PE:0 FE:1 LCR:1e
# UVM_ERROR ../uvm_tb/env/uart_rx_scoreboard.svh(112) @ 250785: uvm_test_top.m_env.rx_sb [monitor_uart] Error in observed UART RX data expected:d actual:3b LCR:1e
# UVM_INFO ../uvm_tb/env/uart_rx_scoreboard.svh(93) @ 251035: uvm_test_top.m_env.rx_sb [monitor_uart] RX Data error detected: PE:0 FE:1 LCR:1e
# UVM_ERROR ../uvm_tb/env/uart_rx_scoreboard.svh(112) @ 251035: uvm_test_top.m_env.rx_sb [monitor_uart] Error in observed UART RX data expected:2c actual:b LCR:1e
# UVM_WARNING ../agents/uart_agent/uart_monitor.svh(95) @ 255060: uvm_test_top.m_env.m_rx_uart_agent.m_uart_monitor [startBitErrorDetect] False start bit detected
# ** Error: (vsim-8567) Illegal cross bin was hit. The bin counter for the bin 'lsr_read_cg.FIFO_ERROR_STATUS.missing_fifo_error' is 39.
#    Time: 259725 ns  Iteration: 1  Region: /uvm_pkg::uvm_task_phase::execute
# UVM_INFO ../uvm_tb/env/uart_rx_scoreboard.svh(93) @ 259775: uvm_test_top.m_env.rx_sb [monitor_uart] RX Data error detected: PE:0 FE:1 LCR:1f
# UVM_ERROR ../uvm_tb/env/uart_rx_scoreboard.svh(118) @ 259775: uvm_test_top.m_env.rx_sb [monitor_uart] Error in observed UART RX data expected:8 actual:67 LCR:1f
# UVM_ERROR ../uvm_tb/env/uart_rx_scoreboard.svh(133) @ 259825: uvm_test_top.m_env.rx_sb [monitor_uart] Error in LSR FE bit - expected:0 actual:0
# UVM_INFO ../uvm_tb/env/uart_rx_scoreboard.svh(93) @ 260025: uvm_test_top.m_env.rx_sb [monitor_uart] RX Data error detected: PE:0 FE:1 LCR:1f
# UVM_ERROR ../uvm_tb/env/uart_rx_scoreboard.svh(118) @ 260025: uvm_test_top.m_env.rx_sb [monitor_uart] Error in observed UART RX data expected:3b actual:53 LCR:1f
# UVM_WARNING ../agents/uart_agent/uart_monitor.svh(95) @ 262290: uvm_test_top.m_env.m_rx_uart_agent.m_uart_monitor [startBitErrorDetect] False start bit detected
# ** Error: (vsim-8567) Illegal cross bin was hit. The bin counter for the bin 'lsr_read_cg.FIFO_ERROR_STATUS.missing_fifo_error' is 40.
#    Time: 269355 ns  Iteration: 1  Region: /uvm_pkg::uvm_task_phase::execute
# UVM_INFO ../uvm_tb/env/uart_rx_scoreboard.svh(93) @ 269405: uvm_test_top.m_env.rx_sb [monitor_uart] RX Data error detected: PE:0 FE:1 LCR:20
# UVM_ERROR ../uvm_tb/env/uart_rx_scoreboard.svh(100) @ 269405: uvm_test_top.m_env.rx_sb [monitor_uart] Error in observed UART RX data expected:b actual:11 LCR:20
# ** Error: (vsim-8567) Illegal cross bin was hit. The bin counter for the bin 'lsr_read_cg.FIFO_ERROR_STATUS.missing_fifo_error' is 41.
#    Time: 269455 ns  Iteration: 1  Region: /uvm_pkg::uvm_task_phase::execute
# UVM_ERROR ../uvm_tb/env/uart_rx_scoreboard.svh(129) @ 269455: uvm_test_top.m_env.rx_sb [monitor_uart] Error in LSR PE bit - expected:0 actual:1
# UVM_ERROR ../uvm_tb/env/uart_rx_scoreboard.svh(133) @ 269455: uvm_test_top.m_env.rx_sb [monitor_uart] Error in LSR FE bit - expected:0 actual:0
# UVM_INFO ../uvm_tb/env/uart_rx_scoreboard.svh(93) @ 269655: uvm_test_top.m_env.rx_sb [monitor_uart] RX Data error detected: PE:0 FE:1 LCR:20
# UVM_ERROR ../uvm_tb/env/uart_rx_scoreboard.svh(100) @ 269655: uvm_test_top.m_env.rx_sb [monitor_uart] Error in observed UART RX data expected:7 actual:5 LCR:20
# UVM_WARNING ../agents/uart_agent/uart_monitor.svh(95) @ 270000: uvm_test_top.m_env.m_rx_uart_agent.m_uart_monitor [startBitErrorDetect] False start bit detected
# ** Error: (vsim-8567) Illegal cross bin was hit. The bin counter for the bin 'lsr_read_cg.FIFO_ERROR_STATUS.missing_fifo_error' is 42.
#    Time: 276645 ns  Iteration: 1  Region: /uvm_pkg::uvm_task_phase::execute
